<?xml version="1.0" standalone="no"?>
<!DOCTYPE svg PUBLIC "-//W3C//DTD SVG 1.1//EN" "http://www.w3.org/Graphics/SVG/1.1/DTD/svg11.dtd" >
<svg xmlns="http://www.w3.org/2000/svg">
<metadata></metadata>
<defs>
<font id="montserratregular" horiz-adv-x="716" >
<font-face units-per-em="2048" ascent="1638" descent="-410" />
<missing-glyph horiz-adv-x="528" />
<glyph horiz-adv-x="0" />
<glyph horiz-adv-x="682" />
<glyph unicode=" "  horiz-adv-x="528" />
<glyph unicode="&#x09;" horiz-adv-x="528" />
<glyph unicode="&#xa0;" horiz-adv-x="528" />
<glyph unicode="!" horiz-adv-x="430" d="M117 119q0 58 36.5 95.5t92.5 37.5t92.5 -37.5t36.5 -95.5q0 -60 -36.5 -98.5t-92.5 -38.5t-92.5 38.5t-36.5 98.5zM133 1063v352h223v-352l-37 -606h-149z" />
<glyph unicode="&#x22;" horiz-adv-x="741" d="M123 930v504h180v-504h-180zM438 930v504h180v-504h-180z" />
<glyph unicode="#" horiz-adv-x="1484" d="M55 354l17 176h293l43 361h-285l16 176h291l45 367h174l-45 -367h363l45 367h174l-45 -367h284l-14 -176h-293l-45 -361h287l-17 -176h-290l-45 -354h-172l43 354h-363l-45 -354h-172l43 354h-287zM537 530h364l43 361h-362z" />
<glyph unicode="$" horiz-adv-x="1271" d="M53 219l105 209q186 -170 405 -203v410q-41 12 -69 21t-67 23.5t-66 28t-59.5 33.5t-54.5 40.5t-44.5 49t-35.5 59.5t-21.5 70.5t-8.5 83.5q0 163 115 267.5t311 126.5v270h180v-268q235 -21 418 -144l-100 -213q-156 95 -318 123v-379q48 -15 79.5 -25t77 -27.5 t75 -34.5t65.5 -41.5t58.5 -53t43 -64t29.5 -80t9 -95.5q0 -168 -119.5 -276t-317.5 -132v-289h-180v287q-145 12 -277 71t-233 152zM408 1067q0 -64 40 -106t115 -72v321q-73 -12 -114 -48.5t-41 -94.5zM743 227q81 17 124.5 59.5t43.5 106.5q0 67 -43.5 111t-124.5 76 v-353z" />
<glyph unicode="%" horiz-adv-x="1992" d="M78 1012q0 199 101 312.5t278 113.5t278 -113.5t101 -312.5q0 -201 -101 -315.5t-278 -114.5t-278 114.5t-101 315.5zM236 1012q0 -138 57.5 -214.5t163.5 -76.5t164.5 76.5t58.5 214.5q0 136 -58.5 211t-164.5 75t-163.5 -74.5t-57.5 -211.5zM348 0l1055 1434h225 l-1053 -1434h-227zM1157 424q0 199 101 312.5t278 113.5t278 -113.5t101 -312.5q0 -201 -101 -314.5t-278 -113.5t-278 113.5t-101 314.5zM1315 424q0 -138 57.5 -213.5t163.5 -75.5t164.5 75.5t58.5 213.5q0 137 -58.5 213t-164.5 76q-105 0 -163 -76t-58 -213z" />
<glyph unicode="&#x26;" horiz-adv-x="1357" d="M117 391q0 59 17 111t44.5 91.5t69.5 76.5t83 63t95 55q-137 185 -137 332q0 143 103.5 233.5t269.5 90.5q161 0 261.5 -84.5t100.5 -216.5q0 -57 -20.5 -108t-50 -88t-80 -75t-92.5 -62.5t-105 -57.5q110 -124 301 -312q73 111 129 258l154 -114q-67 -160 -150 -273 l233 -227l-120 -123l-224 219q-199 -190 -432 -190q-193 0 -321.5 114t-128.5 287zM311 410q0 -106 76 -174t188 -68q153 0 295 139q-235 236 -348 363q-102 -58 -156.5 -118.5t-54.5 -141.5zM475 1122q0 -108 107 -254q60 31 100 56t79 59t58 73t19 85q0 71 -47.5 113 t-126.5 42q-85 0 -137 -49.5t-52 -124.5z" />
<glyph unicode="'" horiz-adv-x="425" d="M123 930v504h180v-504h-180z" />
<glyph unicode="(" horiz-adv-x="653" d="M158 633q0 255 64.5 483.5t185.5 403.5h213q-115 -178 -178.5 -407t-63.5 -480t63.5 -480t178.5 -407h-213q-121 175 -185.5 403.5t-64.5 483.5z" />
<glyph unicode=")" horiz-adv-x="706" d="M244 -254q114 178 177.5 407t63.5 480t-63.5 480t-177.5 407h213q121 -175 185.5 -403.5t64.5 -483.5t-64.5 -483.5t-185.5 -403.5h-213z" />
<glyph unicode="*" horiz-adv-x="712" d="M51 1053l185 104l-185 100l64 117l182 -108l-2 211h123l-2 -211l182 106l61 -115l-184 -100l184 -104l-61 -115l-182 109l2 -211h-123l2 211l-182 -107z" />
<glyph unicode="+" horiz-adv-x="1019" d="M72 584v161h362v359h154v-359h360v-161h-360v-359h-154v359h-362z" />
<glyph unicode="," horiz-adv-x="438" d="M74 -168l78 178q-56 38 -56 107q0 57 36 94t91 37q52 0 88.5 -36t36.5 -95q0 -56 -37 -109l-116 -176h-121z" />
<glyph unicode="-" horiz-adv-x="753" d="M125 543v162h504v-162h-504z" />
<glyph unicode="." horiz-adv-x="446" d="M94 119q0 58 36.5 95.5t92.5 37.5t92.5 -37.5t36.5 -95.5q0 -60 -36.5 -98.5t-92.5 -38.5t-92.5 38.5t-36.5 98.5z" />
<glyph unicode="/" horiz-adv-x="677" d="M-43 -240l649 1911h201l-649 -1911h-201z" />
<glyph unicode="0" horiz-adv-x="1415" d="M98 717q0 349 158 536t453 187q293 0 450.5 -187t157.5 -536t-157.5 -536t-450.5 -187q-295 0 -453 187t-158 536zM346 717q0 -270 90.5 -401.5t272.5 -131.5q181 0 270.5 131.5t89.5 401.5q0 272 -89.5 402t-270.5 130q-183 0 -273 -130t-90 -402z" />
<glyph unicode="1" horiz-adv-x="792" d="M27 1219v215h522v-1434h-242v1219h-280z" />
<glyph unicode="2" horiz-adv-x="1204" d="M68 1239q252 205 522 205q204 0 330.5 -99t126.5 -262q0 -187 -263 -471l-372 -395h700v-217h-1020v176l529 567q79 81 126.5 163t47.5 143q0 86 -63.5 135t-176.5 49q-93 0 -196 -48t-195 -132z" />
<glyph unicode="3" horiz-adv-x="1103" d="M8 145l101 197q76 -72 171.5 -110.5t194.5 -38.5q141 0 221 66.5t80 178.5q0 116 -79.5 176t-223.5 60h-199v141l373 402h-573v215h872v-152l-409 -442l73 -9q183 -15 293.5 -117t110.5 -268q0 -203 -142.5 -328.5t-379.5 -125.5q-131 0 -261 42t-223 113z" />
<glyph unicode="4" horiz-adv-x="1226" d="M61 352v180l490 902h233l-465 -867h426v340h226v-340h209v-215h-209v-352h-226v352h-684z" />
<glyph unicode="5" horiz-adv-x="1181" d="M53 156l97 196q86 -72 188 -111.5t199 -39.5q140 0 219.5 68.5t79.5 189.5q0 109 -79.5 172t-217.5 63q-204 0 -377 -18v758h872l2 -217h-651v-310l197 2q231 0 371.5 -122.5t140.5 -313.5q0 -218 -145 -349.5t-386 -131.5q-126 0 -264.5 45t-245.5 119z" />
<glyph unicode="6" horiz-adv-x="1259" d="M98 688q0 344 168 550t451 206q106 0 223 -30t205 -79l-94 -182q-65 42 -150 66t-168 24q-203 0 -304 -139t-95 -379q116 203 391 203q214 0 337.5 -123.5t123.5 -333.5q0 -222 -137 -351.5t-367 -129.5q-273 0 -428.5 184.5t-155.5 513.5zM373 465q-1 -48 17 -94.5 t52.5 -85.5t94 -62.5t133.5 -23.5q132 0 211.5 72.5t79.5 201.5q0 123 -75 193.5t-206 70.5q-142 0 -225.5 -78.5t-81.5 -193.5z" />
<glyph unicode="7" horiz-adv-x="1167" d="M76 1016v418h1042v-185l-571 -1249h-256l557 1217h-557l-2 -201h-213z" />
<glyph unicode="8" horiz-adv-x="1282" d="M90 397q0 131 78.5 228.5t216.5 140.5q-105 48 -164 130t-59 185q0 168 129.5 265.5t349.5 97.5q222 0 351.5 -100t129.5 -271q0 -103 -56 -182.5t-157 -124.5q132 -43 208.5 -139.5t76.5 -225.5q0 -191 -148.5 -301t-404.5 -110q-254 0 -402.5 109t-148.5 298zM319 424 q0 -117 84 -180.5t238 -63.5t239 63.5t85 180.5q0 113 -85 175.5t-239 62.5q-152 0 -237 -62.5t-85 -175.5zM367 1059q0 -99 72.5 -154t201.5 -55q131 0 202.5 54.5t71.5 154.5t-72 155.5t-202 55.5q-129 0 -201.5 -55.5t-72.5 -155.5z" />
<glyph unicode="9" horiz-adv-x="1259" d="M86 963q0 222 137 351.5t367 129.5q273 0 428.5 -185t155.5 -514q0 -344 -168 -549.5t-451 -205.5q-106 0 -223.5 29.5t-204.5 78.5l94 183q66 -43 151 -67t167 -24q203 0 304 139.5t95 379.5q-116 -203 -391 -203q-214 0 -337.5 123.5t-123.5 333.5zM311 961 q0 -123 75.5 -194t205.5 -71q142 0 225.5 79t81.5 194q1 48 -17 94.5t-52.5 85.5t-94 62.5t-133.5 23.5q-132 0 -211.5 -72.5t-79.5 -201.5z" />
<glyph unicode=":" horiz-adv-x="434" d="M94 119q0 58 36.5 95.5t92.5 37.5t92.5 -37.5t36.5 -95.5q0 -60 -36.5 -98.5t-92.5 -38.5t-92.5 38.5t-36.5 98.5zM94 727q0 58 36.5 95.5t92.5 37.5t92.5 -37.5t36.5 -95.5q0 -60 -36.5 -98.5t-92.5 -38.5t-92.5 38.5t-36.5 98.5z" />
<glyph unicode=";" horiz-adv-x="442" d="M74 -168l78 178q-56 38 -56 107q0 57 36 94t91 37q52 0 88.5 -36t36.5 -95q0 -56 -37 -109l-116 -176h-121zM94 727q0 58 36.5 95.5t92.5 37.5t92.5 -37.5t36.5 -95.5q0 -60 -36.5 -98.5t-92.5 -38.5t-92.5 38.5t-36.5 98.5z" />
<glyph unicode="&#x3c;" horiz-adv-x="1019" d="M72 563v207l876 381v-182l-719 -301l719 -303v-183z" />
<glyph unicode="=" horiz-adv-x="1019" d="M72 369v161h876v-161h-876zM72 799v162h876v-162h-876z" />
<glyph unicode="&#x3e;" horiz-adv-x="1019" d="M72 193v182l719 301l-719 303v182l876 -381v-207z" />
<glyph unicode="?" horiz-adv-x="907" d="M10 1016q6 193 119 300t305 107q188 0 299 -89t111 -253q0 -66 -18 -121t-46.5 -94.5t-63 -75t-69 -68.5t-63 -68.5t-46.5 -83t-18 -103.5h-180q0 67 15.5 122.5t41 94t56 72t60.5 63.5t55.5 61.5t41 74t15.5 92.5q0 87 -56.5 131.5t-154.5 44.5q-101 0 -158 -53 t-61 -156zM299 119q0 58 36.5 95.5t92.5 37.5t92.5 -37.5t36.5 -95.5q0 -60 -36.5 -98.5t-92.5 -38.5t-92.5 38.5t-36.5 98.5z" />
<glyph unicode="@" horiz-adv-x="1994" d="M70 547q0 186 73 351.5t198.5 283.5t299.5 187t369 69t364.5 -66.5t290.5 -182.5t190.5 -280t69.5 -352q0 -230 -109 -370t-282 -140q-97 0 -159 41t-79 125l-4 41q-62 -90 -153 -136t-199 -46q-125 0 -232.5 59t-174 170t-66.5 250q0 135 55.5 246t159 177t236.5 66 q119 0 210.5 -54t112.5 -99v133h221v-715q0 -56 25 -83t69 -27q78 0 135.5 101t57.5 255q0 152 -52 284.5t-146 229t-234 152t-307 55.5q-210 0 -385.5 -96t-277 -262.5t-101.5 -366.5q0 -147 56.5 -275.5t154.5 -219.5t234.5 -143t291.5 -52q97 0 205 31t190 89l84 -149 q-89 -63 -224 -102t-255 -39q-192 0 -361.5 65.5t-290.5 179t-191 273.5t-70 342zM707 561q0 -121 72 -205t186 -84q119 0 190.5 82t71.5 205q0 118 -73.5 197.5t-192.5 79.5q-112 0 -183 -79.5t-71 -195.5z" />
<glyph unicode="A" horiz-adv-x="1511" d="M2 0l633 1434h248l626 -1434h-258l-137 324h-723l-137 -324h-252zM481 539h541l-270 637z" />
<glyph unicode="B" horiz-adv-x="1445" d="M188 0v1434h623q223 0 352 -96t129 -263q0 -121 -67.5 -206t-184.5 -113q144 -25 226 -121.5t82 -241.5q0 -184 -139.5 -288.5t-383.5 -104.5h-637zM430 215h369q142 0 221.5 54.5t79.5 154.5q0 95 -80 149t-221 54h-369v-412zM430 840h369q116 0 180.5 50.5t64.5 141.5 q0 90 -64.5 138.5t-180.5 48.5h-369v-379z" />
<glyph unicode="C" horiz-adv-x="1427" d="M70 719q0 150 58.5 284t158.5 230t239.5 151.5t296.5 55.5q151 0 295.5 -59t249.5 -162l-141 -177q-78 85 -185 134t-215 49q-215 0 -363.5 -146t-148.5 -358t148.5 -359t363.5 -147q106 0 211.5 45.5t188.5 124.5l143 -160q-110 -109 -257.5 -172t-297.5 -63 q-155 0 -293 56.5t-237 153t-157 232t-58 287.5z" />
<glyph unicode="D" horiz-adv-x="1587" d="M188 0v1434h588q159 0 297 -54t235.5 -148t153.5 -227.5t56 -287.5q0 -204 -96 -368t-267 -256.5t-385 -92.5h-582zM430 217h352q211 0 351.5 140.5t140.5 357.5q0 218 -144 360t-358 142h-342v-1000z" />
<glyph unicode="E" horiz-adv-x="1343" d="M188 0v1434h1024v-217h-782v-388h700v-217h-700v-395h807v-217h-1049z" />
<glyph unicode="F" horiz-adv-x="1177" d="M188 0v1434h963l-2 -217h-719v-414h651v-215h-651v-588h-242z" />
<glyph unicode="G" horiz-adv-x="1533" d="M70 717q0 202 101 368t277 260.5t390 94.5q152 0 298 -54t253 -147l-138 -178q-84 77 -192.5 120.5t-220.5 43.5q-144 0 -264.5 -67t-189.5 -184t-69 -257q0 -106 41 -200.5t111 -162.5t167.5 -107.5t205.5 -39.5q165 0 329 98v400h211v-529q-110 -84 -260.5 -135 t-296.5 -51q-156 0 -296 56.5t-240 153t-158.5 231.5t-58.5 286z" />
<glyph unicode="H" horiz-adv-x="1619" d="M188 0v1434h242v-623h760v623h242v-1434h-242v594h-760v-594h-242z" />
<glyph unicode="I" horiz-adv-x="618" d="M188 0v1434h242v-1434h-242z" />
<glyph unicode="J" horiz-adv-x="1021" d="M-4 197l115 184q70 -76 150.5 -117t154.5 -41q97 0 151 59t54 169v766h-496v217h739v-992q0 -215 -118.5 -333.5t-327.5 -118.5q-255 0 -422 207z" />
<glyph unicode="K" horiz-adv-x="1470" d="M188 0v1434h242v-742l684 742h285l-555 -613l592 -821h-291l-471 633l-244 -268v-365h-242z" />
<glyph unicode="L" horiz-adv-x="1093" d="M188 0v1434h242v-1215h621v-219h-863z" />
<glyph unicode="M" horiz-adv-x="1894" d="M188 0v1434h287l473 -953l471 953h285v-1434h-223l-2 1071l-453 -921h-158l-452 921v-1071h-228z" />
<glyph unicode="N" horiz-adv-x="1622" d="M188 0v1434h238l768 -1031v1031h238v-1434h-238l-764 1028v-1028h-242z" />
<glyph unicode="O" horiz-adv-x="1658" d="M70 717q0 203 100 369t274 260t385 94q158 0 299 -55.5t242 -151.5t160 -230.5t59 -285.5t-59 -286t-160 -231.5t-242 -153t-299 -56.5q-211 0 -385 95.5t-274 262.5t-100 369zM315 717q0 -140 70 -257.5t188.5 -185t257.5 -67.5t256 67.5t185.5 185t68.5 257.5 t-68.5 256.5t-185.5 183t-256 66.5q-140 0 -258.5 -66.5t-188 -183t-69.5 -256.5z" />
<glyph unicode="P" horiz-adv-x="1378" d="M188 0v1434h572q270 0 418.5 -128.5t148.5 -361.5q0 -243 -148.5 -377.5t-418.5 -134.5h-330v-432h-242zM430 649h320q168 0 257 72.5t89 216.5q0 139 -89 209t-257 70h-320v-568z" />
<glyph unicode="Q" horiz-adv-x="1689" d="M70 717q0 203 100 369t274 260t385 94q158 0 299 -55.5t242 -151.5t160 -230.5t59 -285.5q0 -243 -142.5 -431t-373.5 -259q123 -133 240 -133q114 0 264 118l96 -170q-83 -74 -186 -115.5t-203 -41.5q-134 0 -252 79.5t-205 225.5q-211 1 -384.5 96.5t-273 262 t-99.5 368.5zM315 717q0 -140 70 -257.5t188.5 -185t257.5 -67.5t256 67.5t185.5 185t68.5 257.5t-68.5 256.5t-185.5 183t-256 66.5q-140 0 -258.5 -66.5t-188 -183t-69.5 -256.5z" />
<glyph unicode="R" horiz-adv-x="1480" d="M188 0v1434h582q275 0 426.5 -128.5t151.5 -361.5q0 -171 -77 -290t-220 -175l321 -479h-274l-262 434q-20 -2 -66 -2h-340v-432h-242zM430 649h340q168 0 258 72.5t90 216.5q0 139 -90 209t-258 70h-340v-568z" />
<glyph unicode="S" horiz-adv-x="1273" d="M53 219l105 209q108 -99 237.5 -154t247.5 -55q127 0 197.5 45.5t70.5 128.5q0 51 -26.5 89.5t-71.5 63t-103 44.5t-122 38.5t-128 39t-122 52t-103 73t-71.5 105.5t-26.5 146q0 183 143.5 291.5t378.5 108.5q136 0 267.5 -40t234.5 -108l-100 -213q-111 67 -222 100.5 t-198 33.5q-107 0 -170 -39.5t-63 -110.5q0 -50 26.5 -88t71 -62.5t103 -45t122.5 -39.5t128 -41t122 -54.5t102.5 -75t70.5 -107.5t26 -148q0 -189 -150.5 -301.5t-390.5 -112.5q-165 0 -319 61.5t-267 165.5z" />
<glyph unicode="T" horiz-adv-x="1185" d="M18 1217v217h1149v-217h-454v-1217h-242v1217h-453z" />
<glyph unicode="U" horiz-adv-x="1564" d="M160 594v840h241v-840q0 -181 103.5 -284t281.5 -103q176 0 277.5 102.5t101.5 284.5v840h242v-840q0 -281 -166.5 -442.5t-456.5 -161.5t-457 161.5t-167 442.5z" />
<glyph unicode="V" horiz-adv-x="1413" d="M6 1434h260l443 -1166l446 1166h252l-580 -1434h-249z" />
<glyph unicode="W" horiz-adv-x="2121" d="M6 1434h260l348 -1166l347 1164l237 2l348 -1166l346 1166h250l-479 -1434h-248l-340 1118l-344 -1118h-250z" />
<glyph unicode="X" horiz-adv-x="1417" d="M31 0l522 735l-485 699h280l350 -498l353 498h282l-481 -689l522 -745h-289l-387 541l-385 -541h-282z" />
<glyph unicode="Y" horiz-adv-x="1304" d="M2 1434h244l409 -699l402 699h246l-527 -957v-477h-239v469z" />
<glyph unicode="Z" horiz-adv-x="1363" d="M76 0v174l874 1043h-848v217h1174v-174l-873 -1043h883v-217h-1210z" />
<glyph unicode="[" horiz-adv-x="706" d="M188 -254v1774h465v-189h-254v-1397h254v-188h-465z" />
<glyph unicode="\" horiz-adv-x="1116" d="M266 1671h201l649 -1911h-201z" />
<glyph unicode="]" horiz-adv-x="968" d="M315 -66h254v1397h-254v189h465v-1774h-465v188z" />
<glyph unicode="^" horiz-adv-x="1101" d="M66 270l380 807h207l381 -807h-182l-301 662l-303 -662h-182z" />
<glyph unicode="_" horiz-adv-x="1159" d="M0 -274h1159v-144h-1159v144z" />
<glyph unicode="`" d="M115 1448l241 102l217 -303h-208z" />
<glyph unicode="a" horiz-adv-x="1200" d="M84 328q0 151 108.5 238.5t303.5 88.5h329v33q0 104 -66.5 161.5t-193.5 57.5q-159 0 -321 -110l-97 164q125 74 224 105.5t245 31.5q210 0 324.5 -101t116.5 -282l2 -715h-232v133q-116 -143 -360 -143q-174 0 -278.5 95t-104.5 243zM305 338q0 -74 56.5 -118t154.5 -44 q126 0 213 58.5t96 148.5v100h-295q-117 0 -171 -34t-54 -111z" />
<glyph unicode="b" horiz-adv-x="1392" d="M184 0v1520h236v-619q124 197 381 197q232 0 376 -154t144 -403q0 -245 -142 -397t-374 -152q-262 0 -385 196v-188h-236zM420 549q0 -158 92.5 -257t239.5 -99q146 0 238.5 99.5t92.5 256.5q0 153 -92.5 252.5t-238.5 99.5t-239 -99t-93 -253z" />
<glyph unicode="c" horiz-adv-x="1155" d="M72 543q0 247 153 401t396 154q295 0 450 -178l-129 -152q-120 123 -302 123h-9q-142 0 -233 -97t-91 -251t91 -251t233 -97q208 0 321 131l131 -131q-154 -203 -462 -203q-243 0 -396 153t-153 398z" />
<glyph unicode="d" horiz-adv-x="1396" d="M72 549q0 246 144 398.5t374 152.5q262 0 387 -199v619h235v-1520h-235v186q-120 -196 -383 -196q-234 0 -378 154.5t-144 404.5zM307 541q2 -156 95 -255.5t241 -99.5q147 0 240.5 99.5t93.5 255.5q0 158 -93 258t-241 100q-147 0 -240.5 -100.5t-95.5 -257.5z" />
<glyph unicode="e" horiz-adv-x="1204" d="M72 543q0 247 153.5 400t397.5 155q280 0 406 -170q107 -144 107 -386q0 -42 -3 -87h-824q28 -126 118.5 -199.5t219.5 -73.5q183 0 307 127l125 -133q-167 -184 -450 -184q-251 0 -404 152t-153 399zM305 627h623q-6 131 -87.5 206.5t-215.5 75.5q-129 0 -214.5 -75.5 t-105.5 -206.5z" />
<glyph unicode="f" horiz-adv-x="702" d="M76 872v177h143v106q0 92 32 165.5t85.5 118t119.5 68t138 23.5q142 0 246 -76l-90 -180q-70 51 -150 51q-64 0 -105.5 -37t-41.5 -110v-129h284v-177h-284v-872h-234v872h-143z" />
<glyph unicode="g" horiz-adv-x="1310" d="M72 580q0 230 133 373.5t350 144.5h8q243 0 361 -185v177h233v-984q0 -234 -154 -371.5t-411 -137.5q-242 0 -453 143l101 170q160 -119 342 -119q155 0 248.5 84t93.5 225v138q-115 -185 -361 -185q-221 0 -356 146t-135 381zM293 573q2 -148 89.5 -241.5t227.5 -93.5 q138 0 226 93.5t88 241.5t-88 241t-226 93q-139 0 -227 -93.5t-90 -240.5z" />
<glyph unicode="h" horiz-adv-x="1370" d="M184 0v1520h236v-643q112 221 403 221q190 0 298 -112t108 -308v-678h-236v612q0 123 -69.5 194t-192.5 71q-143 -1 -227 -96.5t-84 -243.5v-537h-236z" />
<glyph unicode="i" horiz-adv-x="581" d="M154 1401q0 63 39 103t98 40t98 -40t39 -103q0 -61 -39 -101t-98 -40t-98 40t-39 101zM174 0v1090h234v-1090h-234z" />
<glyph unicode="j" horiz-adv-x="587" d="M-174 -334l78 182q68 -49 139 -49q58 0 93.5 37t35.5 111v1143h234v-1121q0 -93 -30.5 -167t-81 -119t-112.5 -68t-129 -23q-128 0 -227 74zM145 1401q0 63 41 103t103 40q64 0 104.5 -40t40.5 -103q0 -62 -40.5 -103t-104.5 -41q-61 0 -102.5 41.5t-41.5 102.5z" />
<glyph unicode="k" horiz-adv-x="1218" d="M184 0v1520h236v-918l481 488h270l-403 -422l434 -668h-278l-320 500l-184 -195v-305h-236z" />
<glyph unicode="l" horiz-adv-x="604" d="M184 0v1520h236v-1520h-236z" />
<glyph unicode="m" horiz-adv-x="2136" d="M174 0v1090h234v-211q108 219 395 219q145 0 242.5 -68.5t136.5 -193.5q101 262 413 262q187 0 293.5 -112.5t106.5 -307.5v-678h-236v612q0 124 -69 195.5t-189 71.5q-137 -4 -218 -99.5t-81 -240.5v-539h-235v612q0 125 -68 196t-188 71q-139 -4 -221 -99.5t-82 -240.5 v-539h-234z" />
<glyph unicode="n" horiz-adv-x="1357" d="M174 0v1090h236v-209q111 217 401 217q190 0 298 -112t108 -308v-678h-236v612q0 123 -69.5 194t-192.5 71q-132 -1 -214.5 -83.5t-94.5 -213.5v-580h-236z" />
<glyph unicode="o" horiz-adv-x="1280" d="M72 545q0 247 157.5 400t411.5 153q252 0 409.5 -153t157.5 -400q0 -246 -157.5 -399.5t-409.5 -153.5q-253 0 -411 153.5t-158 399.5zM307 543q0 -158 93 -256.5t241 -98.5q147 0 239.5 98.5t92.5 256.5q0 156 -92.5 254t-239.5 98q-148 0 -241 -97.5t-93 -254.5z" />
<glyph unicode="p" horiz-adv-x="1392" d="M184 -397v1487h236v-189q124 197 381 197q232 0 376 -154t144 -403q0 -245 -142 -397t-374 -152q-262 0 -385 196v-585h-236zM420 549q0 -158 92.5 -257t239.5 -99q146 0 238.5 99.5t92.5 256.5q0 153 -92.5 252.5t-238.5 99.5t-239 -99t-93 -253z" />
<glyph unicode="q" horiz-adv-x="1396" d="M72 549q0 246 144 398.5t374 152.5q262 0 387 -199v189h235v-1487h-235v583q-120 -196 -383 -196q-234 0 -378 154.5t-144 404.5zM307 541q2 -156 95 -255.5t241 -99.5q147 0 240.5 99.5t93.5 255.5q0 158 -93 258t-241 100q-147 0 -240.5 -100.5t-95.5 -257.5z" />
<glyph unicode="r" horiz-adv-x="806" d="M174 0v1090h236v-218q56 110 151.5 168t224.5 58v-226q-15 1 -30 1q-140 -1 -232 -77q-100 -84 -114 -227v-569h-236z" />
<glyph unicode="s" horiz-adv-x="962" d="M43 143l84 168q69 -61 171 -98t194 -37q80 0 129 29t49 88q0 35 -19.5 62t-53 44.5t-76.5 32t-90.5 28.5t-95 30.5t-90.5 41.5t-76 57t-52 82t-19 113q0 80 33 142t90 99t127.5 56t151.5 19q104 0 206 -29.5t175 -81.5l-86 -174q-72 44 -157 70t-157 26q-159 0 -159 -108 q0 -40 32 -69t83 -47t112.5 -35.5t123 -42.5t112.5 -59.5t82.5 -94.5t31.5 -140q0 -81 -34 -144t-93 -101.5t-133 -58t-158 -19.5q-123 0 -240.5 39.5t-197.5 111.5z" />
<glyph unicode="t" horiz-adv-x="833" d="M63 872v177h154v299h234v-299h321v-177h-321v-522q0 -81 28.5 -114t87.5 -33q68 0 164 47l60 -180q-135 -80 -269 -80q-133 0 -219 79.5t-86 237.5v565h-154z" />
<glyph unicode="u" horiz-adv-x="1337" d="M139 412v678h236v-613q0 -123 68 -193.5t186 -70.5q138 3 218.5 98.5t80.5 241.5v537h235v-1090h-235v213q-106 -218 -389 -221q-187 0 -293.5 112.5t-106.5 307.5z" />
<glyph unicode="v" horiz-adv-x="1075" d="M2 1090h246l303 -859l299 859h235l-417 -1090h-244z" />
<glyph unicode="w" horiz-adv-x="1828" d="M2 1090h242l282 -857l275 857h243l277 -857l278 857h240l-397 -1090h-244l-276 807l-277 -807h-242z" />
<glyph unicode="x" horiz-adv-x="1134" d="M29 0l385 559l-359 531h271l243 -373l248 373h258l-350 -531l375 -559h-271l-260 399l-278 -399h-262z" />
<glyph unicode="y" horiz-adv-x="1087" d="M-10 1090h243l326 -826l303 826h236l-496 -1240q-102 -258 -354 -258q-140 0 -252 93l100 182q73 -53 142 -53q111 0 165 120l37 82z" />
<glyph unicode="z" horiz-adv-x="1099" d="M92 0v160l623 737h-604v193l895 -3v-157l-623 -737l641 -3v-192z" />
<glyph unicode="{" horiz-adv-x="673" d="M74 535v194h63q46 0 67 25.5t21 83.5v424q0 141 74 200.5t246 59.5h88v-189q-107 0 -151 -33.5t-44 -111.5v-336q0 -99 -32.5 -150t-110.5 -71q78 -19 110.5 -69.5t32.5 -149.5v-336q0 -78 44 -112t151 -34v-188h-88q-172 0 -246 60t-74 202v422q0 58 -21 83.5t-67 25.5 h-63z" />
<glyph unicode="|" horiz-adv-x="550" d="M186 -238v1897h179v-1897h-179z" />
<glyph unicode="}" horiz-adv-x="823" d="M264 -70q107 0 151 34t44 112v336q0 99 32.5 150t110.5 71q-78 19 -110.5 69.5t-32.5 149.5v336q0 78 -44 111.5t-151 33.5v189h88q172 0 246 -59.5t74 -200.5v-424q0 -58 21 -83.5t67 -25.5h63v-194h-63q-46 0 -67 -25.5t-21 -83.5v-422q0 -142 -74 -202t-246 -60h-88 v188z" />
<glyph unicode="~" horiz-adv-x="1019" d="M135 522q0 287 199 287q56 0 116 -29.5t110.5 -58.5t84.5 -29q80 0 80 103h162q0 -287 -199 -287q-47 0 -95 18.5t-80.5 40t-69.5 40t-64 18.5q-80 0 -80 -103h-164z" />
<glyph unicode="&#xa2;" horiz-adv-x="1155" d="M72 543q0 223 125.5 371.5t332.5 177.5v309h179v-307q230 -24 362 -174l-129 -152q-95 98 -233 119v-686q153 18 243 125l131 -131q-130 -172 -374 -199v-287h-179v289q-207 28 -332.5 176t-125.5 369zM307 543q0 -125 60.5 -214t162.5 -120v668q-102 -31 -162.5 -120 t-60.5 -214z" />
<glyph unicode="&#xa3;" horiz-adv-x="1120" d="M76 0v197h170v413h-170v172h170v207q0 218 113.5 336.5t322.5 118.5q117 0 222 -47.5t183 -136.5l-96 -189q-132 156 -284 156q-107 0 -163.5 -62t-56.5 -182v-201h361v-172h-361v-413h574v-197h-985z" />
<glyph unicode="&#xa5;" horiz-adv-x="1286" d="M2 1434h244l409 -699l402 699h246l-426 -775h301v-102h-357l-43 -78v-92h400v-102h-400v-285h-241v285h-383v102h383v82l-50 88h-333v102h278z" />
<glyph unicode="&#xa8;" horiz-adv-x="794" d="M53 1411q0 57 35.5 94t89.5 37t88.5 -37t34.5 -94q0 -56 -34.5 -92.5t-88.5 -36.5t-89.5 36.5t-35.5 92.5zM416 1411q0 57 35.5 94t89.5 37t88.5 -37t34.5 -94q0 -56 -34.5 -92.5t-88.5 -36.5t-89.5 36.5t-35.5 92.5z" />
<glyph unicode="&#xa9;" horiz-adv-x="1525" d="M70 713q0 140 54 268.5t146 223t221 150.5t273 56q143 0 271.5 -55t220.5 -148.5t146 -221.5t54 -269q0 -140 -54.5 -268.5t-146.5 -223t-221.5 -151t-273.5 -56.5q-143 0 -271.5 55.5t-220 149.5t-145 222t-53.5 268zM186 713q0 -155 75 -286t207 -208.5t292 -77.5 q161 0 294.5 78.5t209 210.5t75.5 287t-75 286t-207.5 208t-292.5 77q-161 0 -294 -78t-208.5 -210t-75.5 -287zM406 715q0 149 106 249.5t262 100.5q73 0 144 -29t124 -80l-71 -86q-86 86 -195 86q-104 0 -176 -69.5t-72 -169.5q0 -102 72 -173t176 -71q51 0 103 22t92 60 l71 -80q-55 -53 -126.5 -84t-145.5 -31q-154 0 -259 102t-105 253z" />
<glyph unicode="&#xab;" horiz-adv-x="933" d="M47 532l238 357h196l-219 -357l219 -356h-196zM416 532l237 357h197l-219 -357l219 -356h-197z" />
<glyph unicode="&#xad;" horiz-adv-x="753" d="M125 543v162h504v-162h-504z" />
<glyph unicode="&#xae;" horiz-adv-x="1525" d="M70 713q0 140 54 268.5t146 223t221 150.5t273 56q143 0 271.5 -55t220.5 -148.5t146 -221.5t54 -269q0 -140 -54.5 -268.5t-146.5 -223t-221.5 -151t-273.5 -56.5q-143 0 -271.5 55.5t-220 149.5t-145 222t-53.5 268zM186 713q0 -155 75 -286t207 -208.5t292 -77.5 q161 0 294.5 78.5t209 210.5t75.5 287t-75 286t-207.5 208t-292.5 77q-161 0 -294 -78t-208.5 -210t-75.5 -287zM500 389v692h278q135 0 208 -61.5t73 -175.5q0 -166 -146 -223l160 -232h-135l-129 209h-31h-162v-209h-116zM616 696h162q80 0 125 38.5t45 107.5 q0 68 -45 104.5t-125 36.5h-162v-287z" />
<glyph unicode="&#xb4;" d="M127 1245l217 303l242 -102l-250 -201h-209z" />
<glyph unicode="&#xb8;" d="M160 -401l45 110q53 -41 119 -41q42 0 68 25.5t26 58.5q0 32 -25.5 55t-73.5 23q-33 0 -71 -10l86 203h139l-59 -125q66 -12 104.5 -54t38.5 -108q0 -87 -62 -141t-155 -54q-102 0 -180 58z" />
<glyph unicode="&#xbb;" horiz-adv-x="958" d="M156 178l219 357l-219 356h196l238 -356l-238 -357h-196zM524 178l219 357l-219 356h197l237 -356l-237 -357h-197z" />
<glyph unicode="&#xc4;" horiz-adv-x="1511" d="M2 0l633 1434h248l626 -1434h-258l-137 324h-723l-137 -324h-252zM451 1755q0 57 35 94t89 37t88.5 -37t34.5 -94q0 -56 -34.5 -92.5t-88.5 -36.5t-89 36.5t-35 92.5zM481 539h541l-270 637zM813 1755q0 57 35.5 94t89.5 37t88.5 -37t34.5 -94q0 -56 -34.5 -92.5 t-88.5 -36.5t-89.5 36.5t-35.5 92.5z" />
<glyph unicode="&#xd6;" horiz-adv-x="1658" d="M70 717q0 203 100 369t274 260t385 94q158 0 299 -55.5t242 -151.5t160 -230.5t59 -285.5t-59 -286t-160 -231.5t-242 -153t-299 -56.5q-211 0 -385 95.5t-274 262.5t-100 369zM315 717q0 -140 70 -257.5t188.5 -185t257.5 -67.5t256 67.5t185.5 185t68.5 257.5 t-68.5 256.5t-185.5 183t-256 66.5q-140 0 -258.5 -66.5t-188 -183t-69.5 -256.5zM514 1755q0 57 35.5 94t89.5 37t88.5 -37t34.5 -94q0 -56 -34.5 -92.5t-88.5 -36.5t-89.5 36.5t-35.5 92.5zM877 1755q0 57 35 94t89 37t88.5 -37t34.5 -94q0 -56 -34.5 -92.5t-88.5 -36.5 t-89 36.5t-35 92.5z" />
<glyph unicode="&#xdc;" horiz-adv-x="1564" d="M160 594v840h241v-840q0 -181 103.5 -284t281.5 -103q176 0 277.5 102.5t101.5 284.5v840h242v-840q0 -281 -166.5 -442.5t-456.5 -161.5t-457 161.5t-167 442.5zM477 1755q0 57 35.5 94t89.5 37t88.5 -37t34.5 -94q0 -56 -34.5 -92.5t-88.5 -36.5t-89.5 36.5t-35.5 92.5 zM840 1755q0 57 35.5 94t89.5 37t88 -37t34 -94q0 -56 -34 -92.5t-88 -36.5t-89.5 36.5t-35.5 92.5z" />
<glyph unicode="&#xdf;" horiz-adv-x="1339" d="M160 0v999q0 243 139.5 387t382.5 144q212 0 344.5 -108t132.5 -287q0 -120 -64.5 -217t-172.5 -138q145 -29 232 -118.5t87 -231.5q0 -190 -148 -310t-391 -120h-104v182h123q131 0 211 67.5t80 174.5q0 114 -92.5 178t-249.5 64h-27v180q132 0 210.5 68.5t78.5 183.5 q0 111 -69.5 176t-184.5 65q-132 0 -208.5 -87t-76.5 -236v-1016h-233z" />
<glyph unicode="&#xe4;" horiz-adv-x="1200" d="M84 328q0 151 108.5 238.5t303.5 88.5h329v33q0 104 -66.5 161.5t-193.5 57.5q-159 0 -321 -110l-97 164q125 74 224 105.5t245 31.5q210 0 324.5 -101t116.5 -282l2 -715h-232v133q-116 -143 -360 -143q-174 0 -278.5 95t-104.5 243zM289 1411q0 57 35.5 94t89.5 37 t88.5 -37t34.5 -94q0 -56 -34.5 -92.5t-88.5 -36.5t-89.5 36.5t-35.5 92.5zM305 338q0 -74 56.5 -118t154.5 -44q126 0 213 58.5t96 148.5v100h-295q-117 0 -171 -34t-54 -111zM651 1411q0 57 35.5 94t89.5 37t88.5 -37t34.5 -94q0 -56 -34.5 -92.5t-88.5 -36.5t-89.5 36.5 t-35.5 92.5z" />
<glyph unicode="&#xf6;" horiz-adv-x="1280" d="M72 545q0 247 157.5 400t411.5 153q252 0 409.5 -153t157.5 -400q0 -246 -157.5 -399.5t-409.5 -153.5q-253 0 -411 153.5t-158 399.5zM307 543q0 -158 93 -256.5t241 -98.5q147 0 239.5 98.5t92.5 256.5q0 156 -92.5 254t-239.5 98q-148 0 -241 -97.5t-93 -254.5z M336 1411q0 57 35.5 94t89.5 37t88.5 -37t34.5 -94q0 -56 -34.5 -92.5t-88.5 -36.5t-89.5 36.5t-35.5 92.5zM698 1411q0 57 35.5 94t89.5 37t88.5 -37t34.5 -94q0 -56 -34.5 -92.5t-88.5 -36.5t-89.5 36.5t-35.5 92.5z" />
<glyph unicode="&#xfc;" horiz-adv-x="1337" d="M139 412v678h236v-613q0 -123 68 -193.5t186 -70.5q138 3 218.5 98.5t80.5 241.5v537h235v-1090h-235v213q-106 -218 -389 -221q-187 0 -293.5 112.5t-106.5 307.5zM356 1411q0 57 35.5 94t89.5 37t88.5 -37t34.5 -94q0 -56 -34.5 -92.5t-88.5 -36.5t-89.5 36.5 t-35.5 92.5zM719 1411q0 57 35.5 94t89.5 37t88.5 -37t34.5 -94q0 -56 -34.5 -92.5t-88.5 -36.5t-89.5 36.5t-35.5 92.5z" />
<glyph unicode="&#x2c6;" d="M39 1257l211 289h217l211 -289h-193l-127 181l-127 -181h-192z" />
<glyph unicode="&#x2da;" d="M117 1403q0 97 71 167t170 70q100 0 171 -70t71 -167q0 -98 -71 -168t-171 -70t-170.5 70t-70.5 168zM219 1403q0 -54 41 -92.5t98 -38.5t98.5 38.5t41.5 92.5t-41.5 92.5t-98.5 38.5t-98 -38.5t-41 -92.5z" />
<glyph unicode="&#x2dc;" d="M29 1284q0 268 188 268q38 0 75.5 -17.5t62.5 -38.5t54 -38.5t52 -17.5q78 0 78 100h149q0 -268 -186 -268q-42 0 -80.5 17.5t-62 38.5t-52 38.5t-51.5 17.5q-76 0 -76 -100h-151z" />
<glyph unicode="&#x2000;" horiz-adv-x="943" />
<glyph unicode="&#x2001;" horiz-adv-x="1886" />
<glyph unicode="&#x2002;" horiz-adv-x="943" />
<glyph unicode="&#x2003;" horiz-adv-x="1886" />
<glyph unicode="&#x2004;" horiz-adv-x="628" />
<glyph unicode="&#x2005;" horiz-adv-x="471" />
<glyph unicode="&#x2006;" horiz-adv-x="314" />
<glyph unicode="&#x2007;" horiz-adv-x="314" />
<glyph unicode="&#x2008;" horiz-adv-x="235" />
<glyph unicode="&#x2009;" horiz-adv-x="377" />
<glyph unicode="&#x200a;" horiz-adv-x="104" />
<glyph unicode="&#x2010;" horiz-adv-x="753" d="M125 543v162h504v-162h-504z" />
<glyph unicode="&#x2011;" horiz-adv-x="753" d="M125 543v162h504v-162h-504z" />
<glyph unicode="&#x2012;" horiz-adv-x="753" d="M125 543v162h504v-162h-504z" />
<glyph unicode="&#x2013;" horiz-adv-x="829" d="M0 461v162h829v-162h-829z" />
<glyph unicode="&#x2014;" horiz-adv-x="1415" d="M0 461v162h1415v-162h-1415z" />
<glyph unicode="&#x2018;" horiz-adv-x="438" d="M74 1161q0 54 37 107l116 178h121l-78 -178q56 -38 56 -107q0 -58 -35.5 -94.5t-91.5 -36.5q-52 0 -88.5 35.5t-36.5 95.5z" />
<glyph unicode="&#x2019;" horiz-adv-x="438" d="M74 1020l78 176q-56 38 -56 107q0 58 35.5 94.5t91.5 36.5q52 0 88.5 -35.5t36.5 -95.5q0 -54 -37 -107l-116 -176h-121z" />
<glyph unicode="&#x201a;" horiz-adv-x="438" d="M74 -168l78 178q-56 38 -56 107q0 57 36 94t91 37q52 0 88.5 -36t36.5 -95q0 -56 -37 -109l-116 -176h-121z" />
<glyph unicode="&#x201c;" horiz-adv-x="606" d="M74 1161q0 56 37 109l116 176h121l-78 -178q56 -38 56 -107q0 -57 -36 -94t-91 -37q-52 0 -88.5 36t-36.5 95zM379 1161q0 56 37 109l116 176h121l-78 -178q56 -38 56 -107q0 -57 -36 -94t-91 -37q-52 0 -88.5 36t-36.5 95z" />
<glyph unicode="&#x201d;" horiz-adv-x="681" d="M74 1020l78 178q-56 38 -56 107q0 57 36 94t91 37q52 0 88.5 -36t36.5 -95q0 -56 -37 -109l-116 -176h-121zM379 1020l78 178q-56 38 -56 107q0 57 36 94t91 37q52 0 88.5 -36t36.5 -95q0 -56 -37 -109l-116 -176h-121z" />
<glyph unicode="&#x201e;" horiz-adv-x="743" d="M74 -168l78 178q-56 38 -56 107q0 57 36 94t91 37q52 0 88.5 -36t36.5 -95q0 -56 -37 -109l-116 -176h-121zM379 -168l78 178q-56 38 -56 107q0 57 36 94t91 37q52 0 88.5 -36t36.5 -95q0 -56 -37 -109l-116 -176h-121z" />
<glyph unicode="&#x2026;" horiz-adv-x="1245" d="M94 113q0 57 35 93t88 36t88 -36t35 -93t-35 -94t-88 -37t-88 37t-35 94zM500 113q0 57 35 93t88 36t87.5 -36t34.5 -93t-34.5 -94t-87.5 -37t-88 37t-35 94zM905 113q0 57 35 93t88 36t88 -36t35 -93t-35 -94t-88 -37t-88 37t-35 94z" />
<glyph unicode="&#x202f;" horiz-adv-x="377" />
<glyph unicode="&#x2039;" horiz-adv-x="565" d="M47 532l238 357h196l-219 -357l219 -356h-196z" />
<glyph unicode="&#x203a;" horiz-adv-x="589" d="M156 176l219 359l-219 356h196l238 -356l-238 -359h-196z" />
<glyph unicode="&#x205f;" horiz-adv-x="471" />
<glyph unicode="&#x20ac;" horiz-adv-x="1617" d="M76 481v131h192q-8 47 -8 107q0 61 8 108h-192v131h225q76 216 270 349t445 133q152 0 296 -59t247 -162l-140 -177q-80 86 -186 134.5t-215 48.5q-146 0 -267 -72.5t-186 -194.5h514v-131h-563q-10 -58 -10 -106q0 -57 12 -109h561v-131h-514q65 -122 186 -194t267 -72 q106 0 211 45.5t190 124.5l142 -160q-109 -109 -256 -172t-299 -63q-248 0 -440.5 135.5t-266.5 355.5h-223z" />
<glyph unicode="&#x2122;" horiz-adv-x="1814" d="M-10 1282v152h676v-152h-252v-709h-174v709h-250zM782 573v861h201l262 -547l262 547h201v-861h-158v609l-247 -520h-115l-246 520v-609h-160z" />
<glyph unicode="&#x25fc;" horiz-adv-x="1085" d="M0 0v1085h1085v-1085h-1085z" />
<hkern u1="&#x27;" u2="&#x2e;" k="121" />
<hkern u1="&#x28;" u2="&#x39;" k="18" />
<hkern u1="&#x2f;" u2="&#x39;" k="37" />
<hkern u1="&#x37;" u2="&#x2e;" k="61" />
<hkern u1="D" u2="Y" k="6" />
<hkern u1="J" u2="J" k="14" />
<hkern u1="J" u2="&#x2e;" k="10" />
<hkern u1="K" u2="&#xd6;" k="47" />
<hkern u1="K" u2="Q" k="47" />
<hkern u1="K" u2="O" k="47" />
<hkern u1="K" u2="G" k="47" />
<hkern u1="K" u2="C" k="47" />
<hkern u1="O" u2="Y" k="6" />
<hkern u1="Q" u2="Y" k="6" />
<hkern u1="U" u2="J" k="14" />
<hkern u1="V" u2="O" k="8" />
<hkern u1="V" u2="J" k="2" />
<hkern u1="W" u2="O" k="8" />
<hkern u1="W" u2="J" k="2" />
<hkern u1="W" u2="&#x2e;" k="12" />
<hkern u1="W" u2="&#x26;" k="29" />
<hkern u1="Y" u2="&#xd6;" k="61" />
<hkern u1="Y" u2="Q" k="61" />
<hkern u1="Y" u2="O" k="61" />
<hkern u1="Y" u2="J" k="57" />
<hkern u1="Y" u2="G" k="61" />
<hkern u1="Y" u2="C" k="61" />
<hkern u1="Y" u2="&#x2e;" k="2" />
<hkern u1="Y" u2="&#x26;" k="66" />
<hkern u1="[" u2="&#x39;" k="37" />
<hkern u1="a" u2="&#x7d;" k="68" />
<hkern u1="a" u2="\" k="14" />
<hkern u1="a" u2="O" k="2" />
<hkern u1="a" u2="J" k="14" />
<hkern u1="b" u2="J" k="88" />
<hkern u1="e" u2="&#x7d;" k="84" />
<hkern u1="e" u2="\" k="25" />
<hkern u1="e" u2="J" k="88" />
<hkern u1="h" u2="O" k="2" />
<hkern u1="h" u2="J" k="14" />
<hkern u1="m" u2="O" k="2" />
<hkern u1="m" u2="J" k="14" />
<hkern u1="n" u2="O" k="2" />
<hkern u1="n" u2="J" k="14" />
<hkern u1="o" u2="J" k="88" />
<hkern u1="p" u2="J" k="88" />
<hkern u1="v" u2="J" k="23" />
<hkern u1="w" u2="J" k="23" />
<hkern u1="y" u2="J" k="10" />
<hkern u1="y" u2="&#x2e;" k="20" />
<hkern u1="&#xd6;" u2="Y" k="6" />
<hkern u1="&#xdc;" u2="J" k="14" />
<hkern u1="&#xe4;" u2="O" k="2" />
<hkern u1="&#xe4;" u2="J" k="14" />
<hkern u1="&#xf6;" u2="J" k="88" />
<hkern u1="&#x2018;" u2="&#x2e;" k="86" />
<hkern u1="&#x2019;" u2="&#x2e;" k="78" />
<hkern u1="&#x2019;" u2="&#x26;" k="43" />
<hkern g1="s" 	g2="T" 	k="45" />
<hkern g1="s" 	g2="v,w,y" 	k="10" />
<hkern g1="s" 	g2="V,W,Y" 	k="41" />
<hkern g1="s" 	g2="x" 	k="18" />
<hkern g1="C" 	g2="A,Adieresis" 	k="10" />
<hkern g1="C" 	g2="C,G,O,Q,Odieresis" 	k="31" />
<hkern g1="C" 	g2="c,d,e,g,o,q,odieresis" 	k="31" />
<hkern g1="R" 	g2="backslash" 	k="31" />
<hkern g1="R" 	g2="J" 	k="20" />
<hkern g1="R" 	g2="V,W,Y" 	k="16" />
<hkern g1="d,l" 	g2="J" 	k="16" />
<hkern g1="V,W,Y" 	g2="v,w,y" 	k="10" />
<hkern g1="V,W,Y" 	g2="z" 	k="41" />
<hkern g1="V,W,Y" 	g2="J" 	k="20" />
<hkern g1="V,W,Y" 	g2="A,Adieresis" 	k="100" />
<hkern g1="V,W,Y" 	g2="x" 	k="41" />
<hkern g1="V,W,Y" 	g2="C,G,O,Q,Odieresis" 	k="27" />
<hkern g1="V,W,Y" 	g2="c,d,e,g,o,q,odieresis" 	k="111" />
<hkern g1="V,W,Y" 	g2="a,adieresis" 	k="96" />
<hkern g1="V,W,Y" 	g2="s" 	k="41" />
<hkern g1="V,W,Y" 	g2="i" 	k="12" />
<hkern g1="V,W,Y" 	g2="period" 	k="16" />
<hkern g1="V,W,Y" 	g2="m,n,r" 	k="51" />
<hkern g1="V,W,Y" 	g2="t,u,udieresis" 	k="51" />
<hkern g1="V,W,Y" 	g2="p" 	k="33" />
<hkern g1="t" 	g2="A,Adieresis" 	k="-12" />
<hkern g1="t" 	g2="V,W,Y" 	k="51" />
<hkern g1="t" 	g2="c,d,e,g,o,q,odieresis" 	k="12" />
<hkern g1="u,udieresis" 	g2="T" 	k="78" />
<hkern g1="u,udieresis" 	g2="J" 	k="14" />
<hkern g1="u,udieresis" 	g2="C,G,O,Q,Odieresis" 	k="41" />
<hkern g1="D,O,Q,Odieresis" 	g2="T" 	k="29" />
<hkern g1="D,O,Q,Odieresis" 	g2="v,w,y" 	k="12" />
<hkern g1="D,O,Q,Odieresis" 	g2="J" 	k="61" />
<hkern g1="D,O,Q,Odieresis" 	g2="A,Adieresis" 	k="37" />
<hkern g1="D,O,Q,Odieresis" 	g2="V,W,Y" 	k="20" />
<hkern g1="D,O,Q,Odieresis" 	g2="x" 	k="20" />
<hkern g1="D,O,Q,Odieresis" 	g2="C,G,O,Q,Odieresis" 	k="57" />
<hkern g1="D,O,Q,Odieresis" 	g2="period" 	k="49" />
<hkern g1="k,x" 	g2="v,w,y" 	k="12" />
<hkern g1="k,x" 	g2="V,W,Y" 	k="41" />
<hkern g1="k,x" 	g2="C,G,O,Q,Odieresis" 	k="20" />
<hkern g1="k,x" 	g2="c,d,e,g,o,q,odieresis" 	k="51" />
<hkern g1="k,x" 	g2="a,adieresis" 	k="53" />
<hkern g1="k,x" 	g2="s" 	k="18" />
<hkern g1="k,x" 	g2="U,Udieresis" 	k="41" />
<hkern g1="S" 	g2="A,Adieresis" 	k="12" />
<hkern g1="q" 	g2="T" 	k="78" />
<hkern g1="q" 	g2="V,W,Y" 	k="33" />
<hkern g1="i" 	g2="V,W,Y" 	k="12" />
<hkern g1="f" 	g2="f,germandbls" 	k="-12" />
<hkern g1="f" 	g2="T" 	k="-195" />
<hkern g1="f" 	g2="v,w,y" 	k="-61" />
<hkern g1="f" 	g2="J" 	k="49" />
<hkern g1="f" 	g2="A,Adieresis" 	k="18" />
<hkern g1="f" 	g2="V,W,Y" 	k="-76" />
<hkern g1="f" 	g2="C,G,O,Q,Odieresis" 	k="-51" />
<hkern g1="f" 	g2="c,d,e,g,o,q,odieresis" 	k="20" />
<hkern g1="f" 	g2="a,adieresis" 	k="63" />
<hkern g1="f" 	g2="period" 	k="-20" />
<hkern g1="f" 	g2="t,u,udieresis" 	k="-18" />
<hkern g1="f" 	g2="U,Udieresis" 	k="-20" />
<hkern g1="f" 	g2="b,h,k,l" 	k="-29" />
<hkern g1="f" 	g2="B,D,E,F,H,I,K,L,M,N,P,R" 	k="-57" />
<hkern g1="L" 	g2="backslash" 	k="111" />
<hkern g1="L" 	g2="A,Adieresis" 	k="-12" />
<hkern g1="j" 	g2="T" 	k="66" />
<hkern g1="j" 	g2="V,W,Y" 	k="10" />
<hkern g1="P" 	g2="J" 	k="61" />
<hkern g1="P" 	g2="A,Adieresis" 	k="90" />
<hkern g1="P" 	g2="period" 	k="57" />
<hkern g1="A,Adieresis" 	g2="backslash" 	k="78" />
<hkern g1="A,Adieresis" 	g2="T" 	k="141" />
<hkern g1="A,Adieresis" 	g2="v,w,y" 	k="49" />
<hkern g1="A,Adieresis" 	g2="V,W,Y" 	k="100" />
<hkern g1="A,Adieresis" 	g2="C,G,O,Q,Odieresis" 	k="37" />
<hkern g1="A,Adieresis" 	g2="c,d,e,g,o,q,odieresis" 	k="53" />
<hkern g1="A,Adieresis" 	g2="t,u,udieresis" 	k="53" />
<hkern g1="A,Adieresis" 	g2="U,Udieresis" 	k="41" />
<hkern g1="A,Adieresis" 	g2="S" 	k="12" />
<hkern g1="T" 	g2="v,w,y" 	k="78" />
<hkern g1="T" 	g2="z" 	k="66" />
<hkern g1="T" 	g2="J" 	k="29" />
<hkern g1="T" 	g2="A,Adieresis" 	k="141" />
<hkern g1="T" 	g2="C,G,O,Q,Odieresis" 	k="86" />
<hkern g1="T" 	g2="c,d,e,g,o,q,odieresis" 	k="143" />
<hkern g1="T" 	g2="s" 	k="33" />
<hkern g1="T" 	g2="period" 	k="115" />
<hkern g1="T" 	g2="m,n,r" 	k="78" />
<hkern g1="T" 	g2="t,u,udieresis" 	k="78" />
<hkern g1="T" 	g2="ampersand" 	k="82" />
<hkern g1="T" 	g2="b,h,k,l" 	k="109" />
<hkern g1="c" 	g2="V,W,Y" 	k="37" />
<hkern g1="c" 	g2="C,G,O,Q,Odieresis" 	k="33" />
<hkern g1="c" 	g2="c,d,e,g,o,q,odieresis" 	k="43" />
<hkern g1="c" 	g2="a,adieresis" 	k="45" />
<hkern g1="a,h,m,n,adieresis" 	g2="backslash" 	k="70" />
<hkern g1="a,h,m,n,adieresis" 	g2="T" 	k="78" />
<hkern g1="a,h,m,n,adieresis" 	g2="v,w,y" 	k="33" />
<hkern g1="a,h,m,n,adieresis" 	g2="z" 	k="20" />
<hkern g1="a,h,m,n,adieresis" 	g2="J" 	k="61" />
<hkern g1="a,h,m,n,adieresis" 	g2="braceright" 	k="12" />
<hkern g1="a,h,m,n,adieresis" 	g2="V,W,Y" 	k="80" />
<hkern g1="a,h,m,n,adieresis" 	g2="C,G,O,Q,Odieresis" 	k="12" />
<hkern g1="K,X" 	g2="C,G,O,Q,Odieresis" 	k="37" />
<hkern g1="r" 	g2="v,w,y" 	k="-53" />
<hkern g1="r" 	g2="A,Adieresis" 	k="20" />
<hkern g1="r" 	g2="V,W,Y" 	k="29" />
<hkern g1="r" 	g2="a,adieresis" 	k="43" />
<hkern g1="v,w,y" 	g2="T" 	k="78" />
<hkern g1="v,w,y" 	g2="J" 	k="53" />
<hkern g1="v,w,y" 	g2="A,Adieresis" 	k="49" />
<hkern g1="v,w,y" 	g2="V,W,Y" 	k="10" />
<hkern g1="v,w,y" 	g2="x" 	k="12" />
<hkern g1="v,w,y" 	g2="C,G,O,Q,Odieresis" 	k="12" />
<hkern g1="v,w,y" 	g2="c,d,e,g,o,q,odieresis" 	k="41" />
<hkern g1="v,w,y" 	g2="a,adieresis" 	k="31" />
<hkern g1="v,w,y" 	g2="s" 	k="10" />
<hkern g1="v,w,y" 	g2="period" 	k="43" />
<hkern g1="v,w,y" 	g2="m,n,r" 	k="-12" />
<hkern g1="B,germandbls" 	g2="backslash" 	k="18" />
<hkern g1="B,germandbls" 	g2="J" 	k="10" />
<hkern g1="z" 	g2="V,W,Y" 	k="41" />
<hkern g1="z" 	g2="c,d,e,g,o,q,odieresis" 	k="12" />
<hkern g1="z" 	g2="a,adieresis" 	k="20" />
<hkern g1="z" 	g2="m,n,r" 	k="20" />
<hkern g1="F" 	g2="J" 	k="35" />
<hkern g1="F" 	g2="A,Adieresis" 	k="57" />
<hkern g1="F" 	g2="period" 	k="55" />
<hkern g1="J,U,Udieresis" 	g2="J" 	k="35" />
<hkern g1="J,U,Udieresis" 	g2="A,Adieresis" 	k="41" />
<hkern g1="J,U,Udieresis" 	g2="x" 	k="41" />
<hkern g1="J,U,Udieresis" 	g2="period" 	k="29" />
<hkern g1="asterisk" 	g2="J" 	k="4" />
<hkern g1="quotesingle" 	g2="J" 	k="35" />
<hkern g1="quoteright" 	g2="J" 	k="14" />
<hkern g1="trademark" 	g2="J" 	k="20" />
<hkern g1="slash" 	g2="J" 	k="53" />
<hkern g1="slash" 	g2="C,G,O,Q,Odieresis" 	k="39" />
<hkern g1="slash" 	g2="a,adieresis" 	k="23" />
<hkern g1="bracketleft" 	g2="C,G,O,Q,Odieresis" 	k="33" />
<hkern g1="quoteleft" 	g2="J" 	k="33" />
<hkern g1="parenleft" 	g2="C,G,O,Q,Odieresis" 	k="-80" />
<hkern g1="parenleft" 	g2="a,adieresis" 	k="20" />
<hkern g1="guilsinglright" 	g2="J" 	k="27" />
</font>
</defs></svg> 