<?xml version="1.0" standalone="no"?>
<!DOCTYPE svg PUBLIC "-//W3C//DTD SVG 1.1//EN" "http://www.w3.org/Graphics/SVG/1.1/DTD/svg11.dtd" >
<svg xmlns="http://www.w3.org/2000/svg">
<metadata></metadata>
<defs>
<font id="montserratlight" horiz-adv-x="716" >
<font-face units-per-em="2048" ascent="1638" descent="-410" />
<missing-glyph horiz-adv-x="561" />
<glyph horiz-adv-x="0" />
<glyph horiz-adv-x="682" />
<glyph unicode=" "  horiz-adv-x="561" />
<glyph unicode="&#x09;" horiz-adv-x="561" />
<glyph unicode="&#xa0;" horiz-adv-x="561" />
<glyph unicode="!" horiz-adv-x="415" d="M127 90q0 46 28.5 76.5t69.5 30.5q43 0 72 -30.5t29 -76.5t-29 -76t-72 -30q-41 0 -69.5 30.5t-28.5 75.5zM150 1063v346h153v-346l-24 -631h-107z" />
<glyph unicode="&#x22;" horiz-adv-x="641" d="M123 969v465h127v-465h-127zM391 969v465h127v-465h-127z" />
<glyph unicode="#" horiz-adv-x="1470" d="M72 379l10 129h297l51 405h-293l10 129h299l48 392h122l-47 -392h412l49 392h121l-47 -392h291l-9 -129h-299l-51 -405h293l-10 -129h-297l-47 -379h-123l47 379h-412l-47 -379h-123l48 379h-293zM502 508h411l52 405h-414z" />
<glyph unicode="$" horiz-adv-x="1249" d="M66 213l73 147q88 -87 201 -139t227 -61v508q-53 16 -89 28t-84 32t-80 40.5t-66 51t-54.5 65.5t-33.5 82t-13 102q0 153 114 251.5t306 115.5v250h125v-248q111 -6 218 -41t188 -90l-70 -154q-154 101 -336 119v-467q58 -18 92.5 -29.5t87.5 -33.5t85 -42.5t69.5 -52.5 t58 -68t34.5 -85t14 -107q0 -163 -120.5 -267.5t-320.5 -121.5v-272h-125v270q-142 9 -273.5 67t-227.5 150zM328 1083q0 -92 61.5 -145.5t177.5 -93.5v426q-112 -11 -175.5 -59.5t-63.5 -127.5zM692 162q122 14 191 71t69 146q0 42 -13.5 76.5t-35.5 59.5t-57 47t-70.5 37 t-83.5 30v-467z" />
<glyph unicode="%" horiz-adv-x="1929" d="M88 1012q0 200 96.5 312t268.5 112t269 -112.5t97 -311.5q0 -201 -97 -312.5t-269 -111.5t-268.5 111.5t-96.5 312.5zM201 1012q0 -154 65.5 -237t186.5 -83t186.5 83t65.5 237t-65.5 237.5t-186.5 83.5t-186.5 -83.5t-65.5 -237.5zM336 0l1073 1434h158l-1071 -1434 h-160zM1110 422q0 199 96.5 310.5t268.5 111.5t269 -111.5t97 -310.5q0 -201 -97 -312.5t-269 -111.5t-268.5 111.5t-96.5 312.5zM1223 422q0 -155 65.5 -238.5t186.5 -83.5t186 83.5t65 238.5q0 154 -65 236.5t-186 82.5t-186.5 -82.5t-65.5 -236.5z" />
<glyph unicode="&#x26;" horiz-adv-x="1329" d="M119 385q0 61 18.5 114.5t47 93.5t73.5 78t87 64.5t99 57.5q-147 191 -147 337q0 136 97 223t253 87q149 0 240.5 -80.5t91.5 -208.5q0 -41 -11 -78.5t-27.5 -67t-45.5 -60t-55.5 -52t-67.5 -47.5t-71 -42.5t-76 -41.5q115 -133 348 -363q80 113 147 279l109 -84 q-71 -165 -162 -287l248 -244l-86 -90l-240 238q-206 -219 -444 -219q-180 0 -303 112.5t-123 280.5zM254 397q0 -120 85.5 -197t211.5 -77q183 0 346 180q-276 276 -383 402q-59 -33 -101 -62t-81 -67t-58.5 -82.5t-19.5 -96.5zM428 1133q0 -116 125 -285q57 30 92.5 50 t78.5 50.5t67 58t40.5 65t16.5 79.5q0 80 -54.5 129t-146.5 49q-98 0 -158.5 -55.5t-60.5 -140.5z" />
<glyph unicode="'" horiz-adv-x="372" d="M123 969v465h127v-465h-127z" />
<glyph unicode="(" horiz-adv-x="620" d="M178 633q0 257 63 485.5t181 401.5h145q-113 -175 -175 -404t-62 -483q0 -255 62 -484.5t175 -402.5h-145q-118 171 -181 400.5t-63 486.5z" />
<glyph unicode=")" horiz-adv-x="651" d="M180 -254q114 173 176 403t62 484t-62 483t-176 404h146q118 -173 180.5 -401.5t62.5 -485.5q0 -258 -62.5 -487t-180.5 -400h-146z" />
<glyph unicode="*" horiz-adv-x="671" d="M55 1065l193 111l-193 106l45 88l193 -113l-2 220h90v-220l190 111l45 -86l-194 -106l194 -111l-45 -86l-192 113l2 -222h-90l2 222l-193 -113z" />
<glyph unicode="+" horiz-adv-x="1005" d="M76 602v119h373v371h110v-371h371v-119h-371v-371h-110v371h-373z" />
<glyph unicode="," horiz-adv-x="403" d="M86 -147l68 149q-45 26 -45 88q0 44 27.5 73.5t68.5 29.5t69.5 -28.5t28.5 -76.5q0 -38 -31 -88l-96 -147h-90z" />
<glyph unicode="-" horiz-adv-x="743" d="M131 561v119h481v-119h-481z" />
<glyph unicode="." horiz-adv-x="407" d="M104 90q0 46 29 76.5t72 30.5q41 0 69.5 -30.5t28.5 -76.5q0 -45 -28.5 -75.5t-69.5 -30.5q-43 0 -72 30t-29 76z" />
<glyph unicode="/" horiz-adv-x="649" d="M-23 -250l639 1929h142l-641 -1929h-140z" />
<glyph unicode="0" horiz-adv-x="1400" d="M109 717q0 348 153 534.5t438 186.5q286 0 439 -187t153 -534t-153 -534t-439 -187q-285 0 -438 186.5t-153 534.5zM274 717q0 -289 108 -435.5t318 -146.5t318 146.5t108 435.5q0 290 -108 435.5t-318 145.5t-318 -145.5t-108 -435.5z" />
<glyph unicode="1" horiz-adv-x="759" d="M35 1278v156h452v-1434h-161v1278h-291z" />
<glyph unicode="2" horiz-adv-x="1189" d="M82 1241q105 95 231 147t252 52q198 0 317 -96t119 -257q0 -194 -253 -464l-441 -467h776v-156h-985v135l537 584q91 91 143.5 184t52.5 162q0 104 -75.5 163.5t-210.5 59.5q-98 0 -201 -47t-190 -131z" />
<glyph unicode="3" horiz-adv-x="1079" d="M14 137l72 137q77 -63 174.5 -99t196.5 -36q165 0 259.5 81t94.5 214t-93.5 203t-262.5 70h-176v104l419 465h-620v156h825v-111l-444 -494l80 -6q196 -9 314 -110.5t118 -270.5q0 -200 -137 -324t-365 -124q-122 0 -243 39.5t-212 105.5z" />
<glyph unicode="4" horiz-adv-x="1181" d="M63 377v135l515 922h161l-499 -899h512v378h153v-378h217v-158h-217v-377h-153v377h-689z" />
<glyph unicode="5" horiz-adv-x="1157" d="M68 152l67 139q89 -67 196 -105.5t204 -38.5q161 0 254.5 83.5t93.5 228.5q0 127 -93 201.5t-251 74.5q-73 0 -184 -10t-185 -25v734h831v-158h-679v-404q130 21 241 21q223 0 358.5 -118.5t135.5 -305.5q0 -215 -138 -344t-368 -129q-118 0 -249.5 42.5t-233.5 113.5z " />
<glyph unicode="6" horiz-adv-x="1236" d="M109 686q0 343 158.5 548.5t430.5 205.5q97 0 207 -28.5t199 -74.5l-66 -131q-70 41 -158 64.5t-171 23.5q-227 0 -342 -172t-97 -467q47 126 158.5 194.5t269.5 68.5q210 0 332.5 -122t122.5 -329q0 -219 -131.5 -347t-353.5 -128q-262 0 -410.5 182t-148.5 512z M309 457q-1 -54 20 -107.5t61 -100.5t110 -76.5t157 -29.5q154 0 248 87.5t94 238.5q0 143 -88.5 226t-240.5 83q-165 0 -264 -94t-97 -227z" />
<glyph unicode="7" horiz-adv-x="1134" d="M80 1067v367h995v-138l-596 -1296h-174l590 1276h-668v-209h-147z" />
<glyph unicode="8" horiz-adv-x="1263" d="M102 397q0 135 82.5 231t227.5 138q-114 45 -177 126.5t-63 190.5q0 166 123.5 261.5t335.5 95.5q214 0 337.5 -96.5t123.5 -264.5q0 -108 -61.5 -188.5t-172.5 -124.5q141 -42 221 -137t80 -228q0 -191 -141 -300t-385 -109q-246 0 -388.5 108t-142.5 297zM258 416 q0 -135 99 -210t276 -75q174 0 273.5 75.5t99.5 209.5q0 128 -99 200t-276 72q-175 0 -274 -72.5t-99 -199.5zM313 1069q0 -115 84.5 -179.5t235.5 -64.5q149 0 233 64.5t84 179.5t-84 179.5t-233 64.5q-151 0 -235.5 -64.5t-84.5 -179.5z" />
<glyph unicode="9" horiz-adv-x="1236" d="M100 967q0 219 132 347t354 128q262 0 410.5 -182t148.5 -510q0 -345 -159 -550.5t-431 -205.5q-97 0 -206.5 28t-198.5 74l65 131q70 -41 158.5 -64.5t171.5 -23.5q227 0 341.5 172t96.5 467q-47 -126 -158.5 -194t-269.5 -68q-210 0 -332.5 122t-122.5 329zM254 965 q0 -143 89 -226.5t241 -83.5q164 0 263 94.5t99 227.5q0 42 -12.5 85t-40 84.5t-67.5 73t-99.5 51t-130.5 19.5q-155 0 -248.5 -86.5t-93.5 -238.5z" />
<glyph unicode=":" horiz-adv-x="401" d="M104 90q0 46 29 76.5t72 30.5q41 0 69.5 -30.5t28.5 -76.5q0 -45 -28.5 -75.5t-69.5 -30.5q-43 0 -72 30t-29 76zM104 698q0 46 29 76.5t72 30.5q41 0 69.5 -30.5t28.5 -76.5q0 -45 -28.5 -75.5t-69.5 -30.5q-43 0 -72 30t-29 76z" />
<glyph unicode=";" horiz-adv-x="405" d="M86 -147l68 149q-45 26 -45 88q0 44 27.5 73.5t68.5 29.5t69.5 -28.5t28.5 -76.5q0 -38 -31 -88l-96 -147h-90zM104 698q0 46 29 76.5t72 30.5q41 0 69.5 -30.5t28.5 -76.5q0 -45 -28.5 -75.5t-69.5 -30.5q-43 0 -72 30t-29 76z" />
<glyph unicode="&#x3c;" horiz-adv-x="1005" d="M76 592v153l854 381v-135l-744 -323l744 -324v-133z" />
<glyph unicode="=" horiz-adv-x="1005" d="M76 389v121h854v-121h-854zM76 813v121h854v-121h-854z" />
<glyph unicode="&#x3e;" horiz-adv-x="1005" d="M76 217v135l743 324l-743 323v134l854 -381v-154z" />
<glyph unicode="?" horiz-adv-x="868" d="M12 1044q7 175 114 271t286 96q175 0 281 -85.5t106 -244.5q0 -68 -18 -124t-47 -95t-64 -74.5t-70 -69t-64 -70t-47 -87t-18 -110.5h-127q0 69 17 125.5t43.5 95.5t59 73t65.5 65.5t59.5 65t43.5 80.5t17 103q0 102 -68.5 155.5t-183.5 53.5q-116 0 -183 -58t-73 -170z M305 90q0 46 28.5 76.5t69.5 30.5q43 0 72 -30.5t29 -76.5t-29 -76t-72 -30q-41 0 -69.5 30.5t-28.5 75.5z" />
<glyph unicode="@" horiz-adv-x="2019" d="M82 545q0 254 123 461.5t338 325.5t477 118q196 0 366.5 -68t291.5 -186.5t190 -286t69 -360.5q0 -238 -99 -382t-259 -144q-91 0 -150.5 48t-68.5 138l-2 67q-61 -107 -166.5 -165t-235.5 -58q-206 0 -348.5 140t-142.5 356q0 141 59.5 255.5t169 181.5t248.5 67 q137 0 242.5 -64t140.5 -141v188h152v-766q0 -65 32 -100t84 -35q95 0 158.5 114.5t63.5 295.5q0 165 -57.5 308.5t-160.5 247t-252 163t-325 59.5q-170 0 -321 -60t-259 -163.5t-170.5 -248t-62.5 -306.5q0 -213 102.5 -384t282 -266.5t401.5 -95.5q94 0 201.5 30t183.5 83 l58 -115q-84 -57 -209 -92t-234 -35q-193 0 -362 66.5t-289.5 181.5t-190 278t-69.5 349zM629 557q0 -151 96 -252.5t246 -101.5q153 0 249.5 100.5t96.5 251.5q0 148 -97 246t-251 98q-149 0 -244.5 -98t-95.5 -244z" />
<glyph unicode="A" horiz-adv-x="1470" d="M8 0l643 1434h170l641 -1434h-178l-160 362h-782l-160 -362h-174zM412 520h643l-324 727z" />
<glyph unicode="B" horiz-adv-x="1466" d="M217 0v1434h604q217 0 340 -95t123 -264q0 -126 -69 -211.5t-195 -111.5q155 -23 241.5 -119t86.5 -244q0 -183 -137 -286t-380 -103h-614zM381 156h432q175 0 272 66.5t97 189.5q0 117 -97 182t-272 65h-432v-503zM381 815h432q145 0 225 61t80 173q0 109 -80 168 t-225 59h-432v-461z" />
<glyph unicode="C" horiz-adv-x="1433" d="M82 719q0 197 99.5 362.5t271 261t376.5 95.5q146 0 283.5 -55.5t241.5 -153.5l-99 -125q-84 85 -195 132.5t-229 47.5q-160 0 -294 -75t-211.5 -205t-77.5 -285q0 -154 77.5 -284t212 -205.5t293.5 -75.5q117 0 227.5 45.5t196.5 126.5l101 -113q-109 -102 -248 -161.5 t-285 -59.5q-153 0 -290 57t-236 154t-157 231.5t-58 284.5z" />
<glyph unicode="D" horiz-adv-x="1615" d="M217 0v1434h580q206 0 375 -93.5t265.5 -258t96.5 -365.5q0 -151 -57 -284t-155.5 -228t-236.5 -150t-294 -55h-574zM381 156h418q158 0 288 72.5t205.5 201t75.5 285.5q0 158 -76 287t-208 201.5t-291 72.5h-412v-1120z" />
<glyph unicode="E" horiz-adv-x="1333" d="M217 0v1434h973v-158h-809v-471h723v-158h-723v-491h836v-156h-1000z" />
<glyph unicode="F" horiz-adv-x="1153" d="M217 0v1434h911v-158h-747v-504h670v-158h-670v-614h-164z" />
<glyph unicode="G" horiz-adv-x="1542" d="M82 717q0 198 100.5 364t274 261.5t381.5 95.5q147 0 285.5 -52.5t242.5 -144.5l-94 -123q-88 79 -201.5 122.5t-232.5 43.5q-161 0 -297 -75.5t-214.5 -206t-78.5 -285.5q0 -156 79 -287t215.5 -207t297.5 -76q200 0 377 121v432h145v-520q-108 -86 -249.5 -137 t-283.5 -51q-205 0 -376.5 96.5t-271 263.5t-99.5 365z" />
<glyph unicode="H" horiz-adv-x="1626" d="M217 0v1434h164v-648h864v648h164v-1434h-164v631h-864v-631h-164z" />
<glyph unicode="I" horiz-adv-x="598" d="M217 0v1434h164v-1434h-164z" />
<glyph unicode="J" horiz-adv-x="989" d="M0 197l82 131q67 -81 148 -123.5t165 -42.5q119 0 182.5 69.5t63.5 202.5v842h-512v158h678v-1004q0 -208 -108.5 -323t-301.5 -115q-238 0 -397 205z" />
<glyph unicode="K" horiz-adv-x="1431" d="M217 0v1434h164v-826l770 826h195l-568 -623l611 -811h-201l-529 680l-278 -305v-375h-164z" />
<glyph unicode="L" horiz-adv-x="1058" d="M217 0v1434h164v-1278h629v-156h-793z" />
<glyph unicode="M" horiz-adv-x="1886" d="M217 0v1434h203l524 -1033l522 1033h201v-1434h-151l-3 1182l-522 -1030h-98l-520 1030v-1182h-156z" />
<glyph unicode="N" horiz-adv-x="1628" d="M217 0v1434h170l860 -1153v1153h162v-1434h-168l-860 1151v-1151h-164z" />
<glyph unicode="O" horiz-adv-x="1665" d="M82 717q0 200 100 365.5t272.5 260.5t379.5 95q206 0 378 -95.5t271.5 -261.5t99.5 -364t-99.5 -365t-271.5 -263.5t-378 -96.5q-155 0 -294.5 57t-239.5 154t-159 231t-59 283zM248 717q0 -154 79.5 -285t214.5 -206.5t292 -75.5q118 0 225 44.5t185 120.5t124.5 181 t46.5 221t-46 221t-124.5 180t-185.5 119.5t-225 44.5q-157 0 -292 -75t-214.5 -205.5t-79.5 -284.5z" />
<glyph unicode="P" horiz-adv-x="1370" d="M217 0v1434h539q265 0 412 -126.5t147 -355.5q0 -238 -146.5 -368.5t-412.5 -130.5h-375v-453h-164zM381 610h369q195 0 301 86t106 252q0 161 -105.5 244.5t-301.5 83.5h-369v-666z" />
<glyph unicode="Q" horiz-adv-x="1699" d="M82 717q0 200 100 365.5t272.5 260.5t379.5 95q206 0 378 -95.5t271.5 -261.5t99.5 -364q0 -252 -156 -446.5t-399 -254.5q150 -159 291 -159q125 0 276 129l72 -123q-172 -158 -367 -158q-243 0 -450 287h-16q-155 0 -294.5 57t-239.5 154t-159 231t-59 283zM248 717 q0 -154 79.5 -285t214.5 -206.5t292 -75.5q118 0 225 44.5t185 120.5t124.5 181t46.5 221t-46 221t-124.5 180t-185.5 119.5t-225 44.5q-157 0 -292 -75t-214.5 -205.5t-79.5 -284.5z" />
<glyph unicode="R" horiz-adv-x="1480" d="M217 0v1434h545q268 0 416.5 -126.5t148.5 -355.5q0 -177 -82.5 -295.5t-238.5 -169.5l335 -487h-186l-297 457q-62 -4 -96 -4h-381v-453h-164zM381 610h381q197 0 302 86t105 252q0 161 -105 244.5t-302 83.5h-381v-666z" />
<glyph unicode="S" horiz-adv-x="1251" d="M66 213l73 147q98 -95 226 -148.5t251 -53.5q155 0 245.5 59t90.5 162q0 60 -27 105.5t-73.5 74.5t-107 52t-127.5 42t-133.5 40.5t-127 52.5t-107.5 72t-74.5 105t-27.5 146q0 168 136.5 269.5t359.5 101.5q122 0 243 -36t212 -97l-70 -154q-91 61 -196.5 91t-198.5 30 q-140 0 -222.5 -50.5t-82.5 -140.5q0 -59 27.5 -103.5t74.5 -73.5t107.5 -51.5t127 -42.5t133.5 -42t127.5 -54t107 -73.5t73.5 -107t27 -148.5q0 -179 -143.5 -286t-375.5 -107q-153 0 -298.5 60t-249.5 159z" />
<glyph unicode="T" horiz-adv-x="1142" d="M23 1276v158h1099v-158h-469v-1276h-164v1276h-466z" />
<glyph unicode="U" horiz-adv-x="1572" d="M184 590v844h164v-844q0 -208 117.5 -324t322.5 -116t321 116t116 324v844h164v-844q0 -280 -160 -439t-441 -159q-283 0 -443.5 159t-160.5 439z" />
<glyph unicode="V" horiz-adv-x="1361" d="M12 1434h176l494 -1244l496 1244h172l-586 -1434h-170z" />
<glyph unicode="W" horiz-adv-x="2082" d="M12 1434h176l394 -1244l389 1242l164 2l393 -1244l389 1244h170l-481 -1434h-168l-387 1208l-392 -1208h-167z" />
<glyph unicode="X" horiz-adv-x="1361" d="M45 0l526 737l-489 697h192l396 -553l399 553h193l-488 -689l529 -745h-197l-436 600l-432 -600h-193z" />
<glyph unicode="Y" horiz-adv-x="1280" d="M8 1434h170l465 -748l459 748h168l-545 -942v-492h-162v485z" />
<glyph unicode="Z" horiz-adv-x="1351" d="M88 0v131l950 1145h-923v158h1138v-131l-950 -1147h961l-2 -156h-1174z" />
<glyph unicode="[" horiz-adv-x="684" d="M217 -254v1774h404v-138h-259v-1499h259v-137h-404z" />
<glyph unicode="\" horiz-adv-x="915" d="M133 1679h139l641 -1929h-139z" />
<glyph unicode="]" horiz-adv-x="843" d="M225 -117h258v1499h-258v138h402v-1774h-402v137z" />
<glyph unicode="^" horiz-adv-x="1054" d="M70 266l379 811h153l381 -811h-133l-324 707l-323 -707h-133z" />
<glyph unicode="_" horiz-adv-x="1134" d="M0 -311h1135v-107h-1135v107z" />
<glyph unicode="`" d="M145 1460l164 76l246 -279h-154z" />
<glyph unicode="a" horiz-adv-x="1181" d="M102 322q0 142 107.5 225t296.5 84h354v63q0 120 -74 186t-215 66q-164 0 -342 -123l-67 117q114 75 212 110t228 35q198 0 306 -98.5t110 -273.5l2 -713h-156v166q-128 -174 -395 -174q-164 0 -265.5 94t-101.5 236zM252 328q0 -90 67 -143.5t181 -53.5q137 0 234 65 t128 177v129h-336q-274 0 -274 -174z" />
<glyph unicode="b" horiz-adv-x="1384" d="M205 0v1520h160v-674q60 115 167.5 177t247.5 62q229 0 373.5 -152.5t144.5 -395.5q0 -240 -143 -391.5t-371 -151.5q-143 0 -250.5 61.5t-168.5 175.5v-231h-160zM365 541q0 -177 108.5 -289.5t278.5 -112.5q168 0 276.5 113.5t108.5 288.5q0 174 -108.5 287.5 t-276.5 113.5q-170 0 -278.5 -113t-108.5 -288z" />
<glyph unicode="c" horiz-adv-x="1148" d="M86 539q0 240 150.5 392t384.5 152h9q252 0 406 -159l-88 -113q-131 125 -321 125q-168 0 -275.5 -110.5t-107.5 -286.5t107.5 -288t275.5 -112q216 0 334 140l92 -99q-73 -89 -183.5 -137.5t-248.5 -48.5q-235 0 -385 152t-150 393z" />
<glyph unicode="d" horiz-adv-x="1390" d="M86 541q0 243 144.5 394.5t373.5 151.5q144 0 253 -62.5t169 -178.5v674h160v-1520h-160v231q-60 -115 -168 -177t-252 -62q-230 0 -375 153.5t-145 395.5zM246 537q0 -175 110 -288.5t281 -113.5q170 0 279.5 113.5t109.5 288.5q0 177 -109.5 291t-279.5 114 q-172 0 -281.5 -114t-109.5 -291z" />
<glyph unicode="e" horiz-adv-x="1204" d="M86 539q0 241 150 392.5t385 151.5h3q254 0 382 -162q119 -149 119 -397q0 -23 -1 -47h-880q22 -158 128 -251t263 -93q205 0 334 135l88 -94q-77 -87 -188.5 -133.5t-245.5 -46.5q-238 0 -387.5 152t-149.5 393zM244 608h737q-8 155 -105 246.5t-255 91.5 q-154 0 -256 -92t-121 -246z" />
<glyph unicode="f" horiz-adv-x="663" d="M88 915v132h139v118q0 169 101.5 266t244.5 97q134 -3 232 -76l-66 -129q-77 55 -164 55q-82 0 -136 -51t-54 -141v-139h309v-132h-309v-915h-158v915h-139z" />
<glyph unicode="g" horiz-adv-x="1302" d="M86 569q0 226 135.5 370.5t351.5 145.5q137 0 240 -58.5t162 -166.5v219h160v-966q0 -235 -148 -374.5t-395 -139.5q-239 3 -442 155l73 123q162 -134 363 -137q177 0 283 100t106 269v163q-57 -108 -159.5 -166.5t-237.5 -58.5q-218 0 -355 145.5t-137 376.5zM236 563 q2 -167 105 -274t265 -107q161 0 265 107.5t104 273.5q0 168 -103.5 275.5t-265.5 107.5t-265 -107.5t-105 -275.5z" />
<glyph unicode="h" horiz-adv-x="1355" d="M205 0v1520h160v-682q107 244 419 247q193 0 301.5 -111.5t108.5 -307.5v-666h-160v623q0 142 -81 222.5t-224 80.5q-169 -1 -266.5 -110.5t-97.5 -285.5v-530h-160z" />
<glyph unicode="i" horiz-adv-x="546" d="M168 1389q0 47 30 78.5t74 31.5t74.5 -31.5t30.5 -78.5t-30.5 -79t-74.5 -32t-74 32t-30 79zM195 0v1079h157v-1079h-157z" />
<glyph unicode="j" horiz-adv-x="546" d="M-180 -330l57 131q74 -55 156 -55q73 0 114 48.5t41 144.5v1140h160v-1120q0 -178 -88 -271q-85 -91 -215 -91h-6q-124 0 -219 73zM160 1389q0 47 31 79.5t77 32.5q47 0 78 -32t31 -80t-31 -80.5t-78 -32.5q-46 0 -77 33t-31 80z" />
<glyph unicode="k" horiz-adv-x="1173" d="M205 0v1520h160v-994l555 553h188l-403 -417l446 -662h-190l-369 545l-227 -236v-309h-160z" />
<glyph unicode="l" horiz-adv-x="569" d="M205 0v1520h160v-1520h-160z" />
<glyph unicode="m" horiz-adv-x="2138" d="M195 0v1079h157v-243q105 246 412 249q152 0 252.5 -74t134.5 -208q100 279 426 282q188 0 294.5 -111.5t106.5 -307.5v-666h-159v623q0 144 -79.5 224.5t-219.5 80.5q-165 -4 -259 -113t-94 -285v-530h-161v623q0 145 -79 225t-220 80q-164 -4 -259.5 -113.5 t-95.5 -284.5v-530h-157z" />
<glyph unicode="n" horiz-adv-x="1343" d="M195 0v1079h159v-237q111 240 418 243q193 0 301.5 -111.5t108.5 -307.5v-666h-160v623q0 142 -81 222.5t-224 80.5q-157 -1 -253 -95.5t-110 -250.5v-580h-159z" />
<glyph unicode="o" horiz-adv-x="1265" d="M86 541q0 240 153.5 391t393.5 151t393.5 -151t153.5 -391q0 -242 -153.5 -394.5t-393.5 -152.5t-393.5 152.5t-153.5 394.5zM246 539q0 -178 109 -290t278 -112t278 112t109 290q0 176 -109 287.5t-278 111.5t-278 -111.5t-109 -287.5z" />
<glyph unicode="p" horiz-adv-x="1384" d="M205 -397v1476h160v-233q60 115 167.5 177t247.5 62q229 0 373.5 -152.5t144.5 -395.5q0 -240 -143 -391.5t-371 -151.5q-143 0 -250.5 61.5t-168.5 175.5v-628h-160zM365 541q0 -177 108.5 -289.5t278.5 -112.5q168 0 276.5 113.5t108.5 288.5q0 174 -108.5 287.5 t-276.5 113.5q-170 0 -278.5 -113t-108.5 -288z" />
<glyph unicode="q" horiz-adv-x="1390" d="M86 541q0 243 144.5 394.5t373.5 151.5q144 0 253 -62.5t169 -178.5v233h160v-1476h-160v628q-60 -115 -168 -177t-252 -62q-230 0 -375 153.5t-145 395.5zM246 537q0 -175 110 -288.5t281 -113.5q170 0 279.5 113.5t109.5 288.5q0 177 -109.5 291t-279.5 114 q-172 0 -281.5 -114t-109.5 -291z" />
<glyph unicode="r" horiz-adv-x="761" d="M195 0v1079h159v-239q54 119 152.5 181.5t234.5 63.5v-161h-10q-161 0 -261 -93q-102 -96 -116 -258v-573h-159z" />
<glyph unicode="s" horiz-adv-x="927" d="M51 145l62 121q68 -64 165 -100.5t193 -36.5q101 0 165 39q66 40 66 119q0 44 -24 77q-25 35 -67 54.5t-95.5 39t-110 34.5t-110.5 40t-96 56t-67.5 83.5t-25.5 121.5q0 75 30.5 132.5t83.5 91.5t119 51t142 17q199 0 344 -98l-61 -127q-139 88 -293 88 q-96 0 -154.5 -35.5t-58.5 -107.5q0 -43 26 -75t68 -50.5t96.5 -37.5t110.5 -34t110.5 -41t96.5 -58t68 -85.5t26 -122.5q0 -102 -56.5 -173t-143.5 -102.5t-195 -31.5q-118 0 -228.5 39.5t-185.5 111.5z" />
<glyph unicode="t" horiz-adv-x="798" d="M78 915v129h155v285h158v-285l342 3v-132h-342v-587q0 -95 36.5 -138t107.5 -43q83 0 172 56l45 -129q-118 -79 -244 -82q-125 0 -200 77t-75 230v616h-155z" />
<glyph unicode="u" horiz-adv-x="1325" d="M158 414v665h159v-622q0 -142 79.5 -222.5t219.5 -80.5q165 3 260 111.5t95 283.5v530h159v-1079h-159v244q-106 -247 -410 -250q-189 0 -296 112.5t-107 307.5z" />
<glyph unicode="v" horiz-adv-x="1019" d="M8 1079h170l344 -913l342 913h162l-424 -1079h-166z" />
<glyph unicode="w" horiz-adv-x="1769" d="M8 1079h168l320 -913l313 913h168l317 -913l316 913h166l-400 -1079h-166l-317 877l-315 -877h-166z" />
<glyph unicode="x" horiz-adv-x="1083" d="M43 0l393 555l-366 524h184l287 -409l290 409h177l-361 -524l387 -555h-186l-307 440l-318 -440h-180z" />
<glyph unicode="y" horiz-adv-x="1028" d="M-12 -326l67 133q71 -51 152 -51q131 0 196 152l46 100l-447 1071h168l358 -891l342 891h164l-495 -1233q-51 -124 -133.5 -188t-190.5 -64q-127 0 -227 80z" />
<glyph unicode="z" horiz-adv-x="1077" d="M106 0v121l676 817l-657 2v139l850 -2v-121l-676 -817l692 -2v-139z" />
<glyph unicode="{" horiz-adv-x="636" d="M88 561v141h53q51 0 75 29t24 92v455q0 130 68.5 187t223.5 57h58v-138q-109 0 -157 -36.5t-48 -116.5v-397q0 -89 -27.5 -136t-91.5 -67q64 -19 91.5 -65.5t27.5 -135.5v-399q0 -80 48 -116t157 -36v-137h-58q-155 0 -223.5 57t-68.5 187v452q0 64 -24 93.5t-75 29.5 h-53z" />
<glyph unicode="|" horiz-adv-x="512" d="M193 -248v1917h126v-1917h-126z" />
<glyph unicode="}" horiz-adv-x="729" d="M184 -121q109 0 157 36t48 116v399q0 89 27.5 135.5t91.5 65.5q-64 20 -91.5 67t-27.5 136v397q0 80 -48 116.5t-157 36.5v138h58q156 0 224.5 -57t68.5 -187v-455q0 -63 23.5 -92t74.5 -29h53v-141h-53q-51 0 -74.5 -29.5t-23.5 -93.5v-452q0 -130 -68.5 -187 t-224.5 -57h-58v137z" />
<glyph unicode="~" horiz-adv-x="1005" d="M150 541q0 120 45 181.5t131 61.5q54 0 116.5 -32t118.5 -63.5t94 -31.5q88 0 88 111h115q0 -120 -45 -182t-131 -62q-46 0 -95.5 19.5t-85 43t-76.5 43t-73 19.5q-88 0 -88 -108h-114z" />
<glyph unicode="&#xa2;" horiz-adv-x="1148" d="M86 539q0 221 129 369t336 171v299h125v-297q224 -15 360 -157l-88 -113q-115 109 -272 123v-793q181 15 285 138l92 -99q-66 -79 -162.5 -127t-214.5 -57v-270h-125v272q-208 23 -336.5 171t-128.5 370zM244 539q0 -155 84.5 -262t222.5 -132v785 q-138 -25 -222.5 -130.5t-84.5 -260.5z" />
<glyph unicode="&#xa3;" horiz-adv-x="1107" d="M88 0v143h178v490h-178v127h178v241q0 211 105 325t299 114q113 0 213.5 -49.5t173.5 -141.5l-70 -131q-131 166 -301 166q-125 0 -190.5 -73t-65.5 -212v-239h373v-127h-373v-490h602v-143h-944z" />
<glyph unicode="&#xa5;" horiz-adv-x="1267" d="M10 1434h168l465 -748l459 748h168l-461 -797h328v-82h-375l-35 -59v-138h410v-82h-410v-276h-164v276h-403v82h403v129l-41 68h-362v82h315z" />
<glyph unicode="&#xa8;" horiz-adv-x="763" d="M90 1401q0 44 28.5 74t69.5 30t70 -30t29 -74t-29 -74.5t-70 -30.5t-69.5 30.5t-28.5 74.5zM432 1401q0 44 27.5 74t68.5 30q43 0 71 -30t28 -74q0 -45 -28 -75t-71 -30q-41 0 -68.5 30.5t-27.5 74.5z" />
<glyph unicode="&#xa9;" horiz-adv-x="1550" d="M82 713q0 140 54 268.5t146 223t221 150.5t273 56q143 0 271.5 -55t220.5 -148.5t146 -221.5t54 -269q0 -140 -54.5 -268.5t-146.5 -223t-221.5 -151t-273.5 -56.5q-143 0 -271.5 55.5t-220 149.5t-145 222t-53.5 268zM170 713q0 -163 78.5 -300.5t217 -218.5t306.5 -81 q169 0 309.5 82t220.5 220.5t80 301.5q0 122 -47 232.5t-127.5 191.5t-193 128.5t-238.5 47.5q-168 0 -308 -82t-219 -220.5t-79 -301.5zM412 715q0 151 108.5 254.5t265.5 103.5q73 0 143.5 -28t123.5 -78l-56 -66q-92 86 -211 86q-118 0 -201 -78.5t-83 -191.5 q0 -116 83 -196.5t201 -80.5q117 0 211 84l56 -59q-55 -53 -126 -83t-145 -30q-155 0 -262.5 105.5t-107.5 257.5z" />
<glyph unicode="&#xab;" horiz-adv-x="874" d="M76 522l231 344h139l-219 -344l219 -340h-139zM391 522l232 344h139l-219 -344l219 -340h-139z" />
<glyph unicode="&#xad;" horiz-adv-x="743" d="M131 561v119h481v-119h-481z" />
<glyph unicode="&#xae;" horiz-adv-x="1550" d="M82 713q0 140 54 268.5t146 223t221 150.5t273 56q143 0 271.5 -55t220.5 -148.5t146 -221.5t54 -269q0 -140 -54.5 -268.5t-146.5 -223t-221.5 -151t-273.5 -56.5q-143 0 -271.5 55.5t-220 149.5t-145 222t-53.5 268zM170 713q0 -163 78.5 -300.5t217 -218.5t306.5 -81 q169 0 309.5 82t220.5 220.5t80 301.5q0 122 -47 232.5t-127.5 191.5t-193 128.5t-238.5 47.5q-168 0 -308 -82t-219 -220.5t-79 -301.5zM514 373v719h274q138 0 212.5 -62.5t74.5 -179.5q0 -88 -42 -147.5t-120 -84.5l172 -245h-102l-152 229q-14 -2 -43 -2h-188v-227h-86z M600 678h188q96 0 149.5 44.5t53.5 127.5q0 79 -53.5 121.5t-149.5 42.5h-188v-336z" />
<glyph unicode="&#xb4;" d="M154 1257l245 279l162 -78l-254 -201h-153z" />
<glyph unicode="&#xb8;" d="M176 -391l35 88q50 -41 121 -41q50 0 80 28t28 68q0 36 -27.5 61t-74.5 25q-41 0 -68 -6l78 186h101l-54 -120q65 -8 105.5 -49t40.5 -107q1 -82 -55 -132t-144 -50q-97 0 -166 49z" />
<glyph unicode="&#xbb;" horiz-adv-x="888" d="M156 182l219 344l-219 340h139l231 -340l-231 -344h-139zM471 182l219 344l-219 340h139l232 -340l-232 -344h-139z" />
<glyph unicode="&#xc4;" horiz-adv-x="1470" d="M8 0l643 1434h170l641 -1434h-178l-160 362h-782l-160 -362h-174zM412 520h643l-324 727zM467 1755q0 44 28.5 74.5t69.5 30.5t70 -30.5t29 -74.5q0 -45 -28.5 -75.5t-70.5 -30.5q-41 0 -69.5 30.5t-28.5 75.5zM807 1755q0 44 28.5 74.5t69.5 30.5t70 -30.5t29 -74.5 q0 -45 -28.5 -75.5t-70.5 -30.5q-41 0 -69.5 30.5t-28.5 75.5z" />
<glyph unicode="&#xd6;" horiz-adv-x="1665" d="M82 717q0 200 100 365.5t272.5 260.5t379.5 95q206 0 378 -95.5t271.5 -261.5t99.5 -364t-99.5 -365t-271.5 -263.5t-378 -96.5q-155 0 -294.5 57t-239.5 154t-159 231t-59 283zM248 717q0 -154 79.5 -285t214.5 -206.5t292 -75.5q118 0 225 44.5t185 120.5t124.5 181 t46.5 221t-46 221t-124.5 180t-185.5 119.5t-225 44.5q-157 0 -292 -75t-214.5 -205.5t-79.5 -284.5zM559 1755q0 44 28.5 74.5t69.5 30.5t70 -30.5t29 -74.5q0 -45 -28.5 -75.5t-70.5 -30.5q-41 0 -69.5 30.5t-28.5 75.5zM899 1755q0 44 28.5 74.5t69.5 30.5t70 -30.5 t29 -74.5q0 -45 -28.5 -75.5t-70.5 -30.5q-41 0 -69.5 30.5t-28.5 75.5z" />
<glyph unicode="&#xdc;" horiz-adv-x="1572" d="M184 590v844h164v-844q0 -208 117.5 -324t322.5 -116t321 116t116 324v844h164v-844q0 -280 -160 -439t-441 -159q-283 0 -443.5 159t-160.5 439zM518 1755q0 44 28.5 74.5t69.5 30.5t70 -30.5t29 -74.5q0 -45 -28.5 -75.5t-70.5 -30.5q-41 0 -69.5 30.5t-28.5 75.5z M858 1755q0 44 28.5 74.5t69.5 30.5t70 -30.5t29 -74.5q0 -45 -28.5 -75.5t-70.5 -30.5q-41 0 -69.5 30.5t-28.5 75.5z" />
<glyph unicode="&#xdf;" horiz-adv-x="1329" d="M184 0v1004q0 239 134 381.5t362 142.5q202 0 327.5 -106.5t125.5 -282.5q0 -129 -72.5 -227.5t-192.5 -133.5q157 -27 249.5 -119t92.5 -237q0 -188 -142 -305t-376 -117h-108v133h118q159 0 256 79t97 204q0 130 -105.5 204t-283.5 74h-21v131q152 0 242 79.5t90 211.5 q0 124 -82 198.5t-217 74.5q-153 0 -243.5 -102t-90.5 -273v-1014h-160z" />
<glyph unicode="&#xe4;" horiz-adv-x="1181" d="M102 322q0 142 107.5 225t296.5 84h354v63q0 120 -74 186t-215 66q-164 0 -342 -123l-67 117q114 75 212 110t228 35q198 0 306 -98.5t110 -273.5l2 -713h-156v166q-128 -174 -395 -174q-164 0 -265.5 94t-101.5 236zM252 328q0 -90 67 -143.5t181 -53.5q137 0 234 65 t128 177v129h-336q-274 0 -274 -174zM313 1401q0 44 29 74t70 30t69.5 -30t28.5 -74q0 -46 -28.5 -76.5t-69.5 -30.5q-42 0 -70.5 31t-28.5 76zM653 1401q0 44 29 74t70 30t69.5 -30t28.5 -74q0 -46 -28.5 -76.5t-69.5 -30.5q-42 0 -70.5 31t-28.5 76z" />
<glyph unicode="&#xf6;" horiz-adv-x="1265" d="M86 541q0 240 153.5 391t393.5 151t393.5 -151t153.5 -391q0 -242 -153.5 -394.5t-393.5 -152.5t-393.5 152.5t-153.5 394.5zM246 539q0 -178 109 -290t278 -112t278 112t109 290q0 176 -109 287.5t-278 111.5t-278 -111.5t-109 -287.5zM365 1401q0 44 28.5 74t69.5 30 t69.5 -30t28.5 -74q0 -46 -28.5 -76.5t-69.5 -30.5t-69.5 30.5t-28.5 76.5zM705 1401q0 44 28.5 74t69.5 30t69.5 -30t28.5 -74q0 -46 -28.5 -76.5t-69.5 -30.5t-69.5 30.5t-28.5 76.5z" />
<glyph unicode="&#xfc;" horiz-adv-x="1325" d="M158 414v665h159v-622q0 -142 79.5 -222.5t219.5 -80.5q165 3 260 111.5t95 283.5v530h159v-1079h-159v244q-106 -247 -410 -250q-189 0 -296 112.5t-107 307.5zM387 1401q0 44 28.5 74t69.5 30t70 -30t29 -74q0 -45 -28.5 -76t-70.5 -31q-41 0 -69.5 30.5t-28.5 76.5z M727 1401q0 44 28.5 74t69.5 30t70 -30t29 -74q0 -45 -28.5 -76t-70.5 -31q-41 0 -69.5 30.5t-28.5 76.5z" />
<glyph unicode="&#x2c6;" d="M72 1266l209 266h155l209 -266h-139l-148 184l-147 -184h-139z" />
<glyph unicode="&#x2da;" d="M123 1391q0 94 69.5 162.5t165.5 68.5q97 0 167.5 -68.5t70.5 -162.5q0 -95 -70.5 -164.5t-167.5 -69.5q-96 0 -165.5 69.5t-69.5 164.5zM201 1391q0 -62 46.5 -106t110.5 -44q65 0 112.5 44.5t47.5 105.5q0 60 -47.5 103.5t-112.5 43.5q-64 0 -110.5 -43.5t-46.5 -103.5 z" />
<glyph unicode="&#x2dc;" d="M53 1294q0 114 43.5 173t126.5 59q36 0 73 -19t62.5 -42.5t56.5 -42.5t56 -19q88 0 88 106h107q0 -114 -43.5 -172.5t-126.5 -58.5q-33 0 -63.5 12.5t-53.5 31t-44 36.5t-43.5 30.5t-43.5 12.5q-88 0 -88 -107h-107z" />
<glyph unicode="&#x2000;" horiz-adv-x="930" />
<glyph unicode="&#x2001;" horiz-adv-x="1860" />
<glyph unicode="&#x2002;" horiz-adv-x="930" />
<glyph unicode="&#x2003;" horiz-adv-x="1860" />
<glyph unicode="&#x2004;" horiz-adv-x="620" />
<glyph unicode="&#x2005;" horiz-adv-x="465" />
<glyph unicode="&#x2006;" horiz-adv-x="310" />
<glyph unicode="&#x2007;" horiz-adv-x="310" />
<glyph unicode="&#x2008;" horiz-adv-x="232" />
<glyph unicode="&#x2009;" horiz-adv-x="372" />
<glyph unicode="&#x200a;" horiz-adv-x="103" />
<glyph unicode="&#x2010;" horiz-adv-x="743" d="M131 561v119h481v-119h-481z" />
<glyph unicode="&#x2011;" horiz-adv-x="743" d="M131 561v119h481v-119h-481z" />
<glyph unicode="&#x2012;" horiz-adv-x="743" d="M131 561v119h481v-119h-481z" />
<glyph unicode="&#x2013;" horiz-adv-x="825" d="M0 471v121h825v-121h-825z" />
<glyph unicode="&#x2014;" horiz-adv-x="1470" d="M0 471v121h1470v-121h-1470z" />
<glyph unicode="&#x2018;" horiz-adv-x="403" d="M86 1212q0 40 31 86l96 150h90l-67 -150q47 -27 47 -88q0 -44 -28.5 -73t-70.5 -29q-40 0 -69 28.5t-29 75.5z" />
<glyph unicode="&#x2019;" horiz-adv-x="403" d="M86 1094l68 149q-45 26 -45 86q0 46 27.5 75.5t68.5 29.5t69.5 -29.5t28.5 -75.5q0 -38 -31 -88l-96 -147h-90z" />
<glyph unicode="&#x201a;" horiz-adv-x="403" d="M86 -147l68 149q-45 26 -45 88q0 44 27.5 73.5t68.5 29.5t69.5 -28.5t28.5 -76.5q0 -38 -31 -88l-96 -147h-90z" />
<glyph unicode="&#x201c;" horiz-adv-x="577" d="M86 1212q0 38 31 88l96 148h90l-67 -150q45 -26 45 -88q0 -44 -28 -73t-69 -29t-69.5 28t-28.5 76zM344 1212q0 38 31 88l96 148h90l-67 -150q45 -26 45 -88q0 -44 -28 -73t-69 -29t-69.5 28t-28.5 76z" />
<glyph unicode="&#x201d;" horiz-adv-x="624" d="M86 1094l68 149q-45 26 -45 88q0 44 27.5 73.5t68.5 29.5t69.5 -28.5t28.5 -76.5q0 -38 -31 -88l-96 -147h-90zM344 1094l68 149q-45 26 -45 88q0 44 27.5 73.5t68.5 29.5t69.5 -28.5t28.5 -76.5q0 -38 -31 -88l-96 -147h-90z" />
<glyph unicode="&#x201e;" horiz-adv-x="661" d="M86 -147l68 149q-45 26 -45 88q0 44 27.5 73.5t68.5 29.5t69.5 -28.5t28.5 -76.5q0 -38 -31 -88l-96 -147h-90zM344 -147l68 149q-45 26 -45 88q0 44 27.5 73.5t68.5 29.5t69.5 -28.5t28.5 -76.5q0 -38 -31 -88l-96 -147h-90z" />
<glyph unicode="&#x2026;" horiz-adv-x="1150" d="M104 88q0 44 28 73t69 29t68.5 -29t27.5 -73t-27.5 -74t-68.5 -30t-69 30t-28 74zM479 88q0 44 28 73t68 29q42 0 70.5 -29t28.5 -73t-29 -74t-70 -30q-40 0 -68 30t-28 74zM854 88q0 44 28 73t70 29q40 0 68.5 -29t28.5 -73t-28.5 -74t-68.5 -30q-41 0 -69.5 30 t-28.5 74z" />
<glyph unicode="&#x202f;" horiz-adv-x="372" />
<glyph unicode="&#x2039;" horiz-adv-x="559" d="M76 522l231 344h139l-219 -344l219 -340h-139z" />
<glyph unicode="&#x203a;" horiz-adv-x="573" d="M156 182l221 344l-221 342h139l231 -342l-231 -344h-139z" />
<glyph unicode="&#x205f;" horiz-adv-x="465" />
<glyph unicode="&#x20ac;" horiz-adv-x="1630" d="M88 477v105h203q-12 68 -12 137q0 67 12 131h-203v104h229q76 215 269.5 349.5t439.5 134.5q146 0 283.5 -55.5t238.5 -153.5l-94 -125q-86 86 -196.5 133t-229.5 47q-176 0 -319 -90t-213 -240h555v-104h-590q-17 -70 -17 -131q0 -64 17 -137h590v-105h-551 q71 -147 213 -235t315 -88q115 0 226 45.5t200 126.5l96 -113q-105 -102 -244.5 -161.5t-285.5 -59.5q-243 0 -434 134.5t-267 350.5h-231z" />
<glyph unicode="&#x2122;" horiz-adv-x="1792" d="M-6 1321v113h653v-113h-266v-748h-123v748h-264zM782 573v861h148l297 -600l295 600h149v-861h-112v682l-293 -591h-78l-293 591v-682h-113z" />
<glyph unicode="&#x25fc;" horiz-adv-x="1075" d="M0 0v1075h1075v-1075h-1075z" />
<hkern u1="&#x27;" u2="&#x2e;" k="131" />
<hkern u1="&#x28;" u2="&#x39;" k="12" />
<hkern u1="&#x2f;" u2="&#x39;" k="35" />
<hkern u1="&#x37;" u2="&#x2e;" k="53" />
<hkern u1="D" u2="Y" k="8" />
<hkern u1="J" u2="J" k="12" />
<hkern u1="J" u2="&#x2e;" k="6" />
<hkern u1="K" u2="&#xd6;" k="51" />
<hkern u1="K" u2="Q" k="51" />
<hkern u1="K" u2="O" k="51" />
<hkern u1="K" u2="G" k="51" />
<hkern u1="K" u2="C" k="51" />
<hkern u1="O" u2="Y" k="8" />
<hkern u1="Q" u2="Y" k="8" />
<hkern u1="U" u2="J" k="12" />
<hkern u1="V" u2="O" k="10" />
<hkern u1="V" u2="J" k="18" />
<hkern u1="W" u2="O" k="10" />
<hkern u1="W" u2="J" k="18" />
<hkern u1="W" u2="&#x2e;" k="16" />
<hkern u1="W" u2="&#x26;" k="41" />
<hkern u1="Y" u2="&#xd6;" k="80" />
<hkern u1="Y" u2="Q" k="80" />
<hkern u1="Y" u2="O" k="80" />
<hkern u1="Y" u2="J" k="76" />
<hkern u1="Y" u2="G" k="80" />
<hkern u1="Y" u2="C" k="80" />
<hkern u1="Y" u2="&#x2e;" k="16" />
<hkern u1="Y" u2="&#x26;" k="53" />
<hkern u1="[" u2="&#x39;" k="41" />
<hkern u1="a" u2="&#x7d;" k="90" />
<hkern u1="a" u2="\" k="14" />
<hkern u1="a" u2="O" k="10" />
<hkern u1="a" u2="J" k="12" />
<hkern u1="b" u2="J" k="113" />
<hkern u1="e" u2="&#x7d;" k="113" />
<hkern u1="e" u2="\" k="29" />
<hkern u1="e" u2="J" k="113" />
<hkern u1="h" u2="O" k="10" />
<hkern u1="h" u2="J" k="12" />
<hkern u1="m" u2="O" k="10" />
<hkern u1="m" u2="J" k="12" />
<hkern u1="n" u2="O" k="10" />
<hkern u1="n" u2="J" k="12" />
<hkern u1="o" u2="J" k="113" />
<hkern u1="p" u2="J" k="113" />
<hkern u1="v" u2="J" k="14" />
<hkern u1="w" u2="J" k="14" />
<hkern u1="y" u2="J" k="14" />
<hkern u1="y" u2="&#x2e;" k="27" />
<hkern u1="&#xd6;" u2="Y" k="8" />
<hkern u1="&#xdc;" u2="J" k="12" />
<hkern u1="&#xe4;" u2="O" k="10" />
<hkern u1="&#xe4;" u2="J" k="12" />
<hkern u1="&#xf6;" u2="J" k="113" />
<hkern u1="&#x2018;" u2="&#x2e;" k="70" />
<hkern u1="&#x2019;" u2="&#x2e;" k="57" />
<hkern u1="&#x2019;" u2="&#x26;" k="45" />
<hkern g1="s" 	g2="T" 	k="59" />
<hkern g1="s" 	g2="v,w,y" 	k="6" />
<hkern g1="s" 	g2="V,W,Y" 	k="33" />
<hkern g1="s" 	g2="x" 	k="12" />
<hkern g1="C" 	g2="A,Adieresis" 	k="6" />
<hkern g1="C" 	g2="C,G,O,Q,Odieresis" 	k="35" />
<hkern g1="C" 	g2="c,d,e,g,o,q,odieresis" 	k="35" />
<hkern g1="R" 	g2="backslash" 	k="39" />
<hkern g1="R" 	g2="J" 	k="20" />
<hkern g1="R" 	g2="V,W,Y" 	k="18" />
<hkern g1="d,l" 	g2="J" 	k="16" />
<hkern g1="V,W,Y" 	g2="v,w,y" 	k="6" />
<hkern g1="V,W,Y" 	g2="z" 	k="33" />
<hkern g1="V,W,Y" 	g2="J" 	k="16" />
<hkern g1="V,W,Y" 	g2="A,Adieresis" 	k="94" />
<hkern g1="V,W,Y" 	g2="x" 	k="33" />
<hkern g1="V,W,Y" 	g2="C,G,O,Q,Odieresis" 	k="31" />
<hkern g1="V,W,Y" 	g2="c,d,e,g,o,q,odieresis" 	k="100" />
<hkern g1="V,W,Y" 	g2="a,adieresis" 	k="106" />
<hkern g1="V,W,Y" 	g2="s" 	k="33" />
<hkern g1="V,W,Y" 	g2="i" 	k="16" />
<hkern g1="V,W,Y" 	g2="period" 	k="-14" />
<hkern g1="V,W,Y" 	g2="m,n,r" 	k="47" />
<hkern g1="V,W,Y" 	g2="t,u,udieresis" 	k="47" />
<hkern g1="V,W,Y" 	g2="ampersand" 	k="-41" />
<hkern g1="V,W,Y" 	g2="p" 	k="45" />
<hkern g1="t" 	g2="A,Adieresis" 	k="-16" />
<hkern g1="t" 	g2="V,W,Y" 	k="47" />
<hkern g1="t" 	g2="c,d,e,g,o,q,odieresis" 	k="16" />
<hkern g1="u,udieresis" 	g2="T" 	k="102" />
<hkern g1="u,udieresis" 	g2="J" 	k="12" />
<hkern g1="u,udieresis" 	g2="C,G,O,Q,Odieresis" 	k="53" />
<hkern g1="D,O,Q,Odieresis" 	g2="T" 	k="18" />
<hkern g1="D,O,Q,Odieresis" 	g2="v,w,y" 	k="16" />
<hkern g1="D,O,Q,Odieresis" 	g2="J" 	k="70" />
<hkern g1="D,O,Q,Odieresis" 	g2="A,Adieresis" 	k="35" />
<hkern g1="D,O,Q,Odieresis" 	g2="V,W,Y" 	k="18" />
<hkern g1="D,O,Q,Odieresis" 	g2="x" 	k="20" />
<hkern g1="D,O,Q,Odieresis" 	g2="C,G,O,Q,Odieresis" 	k="35" />
<hkern g1="D,O,Q,Odieresis" 	g2="period" 	k="51" />
<hkern g1="k,x" 	g2="v,w,y" 	k="16" />
<hkern g1="k,x" 	g2="V,W,Y" 	k="33" />
<hkern g1="k,x" 	g2="C,G,O,Q,Odieresis" 	k="20" />
<hkern g1="k,x" 	g2="c,d,e,g,o,q,odieresis" 	k="47" />
<hkern g1="k,x" 	g2="a,adieresis" 	k="57" />
<hkern g1="k,x" 	g2="s" 	k="12" />
<hkern g1="k,x" 	g2="U,Udieresis" 	k="41" />
<hkern g1="S" 	g2="A,Adieresis" 	k="16" />
<hkern g1="q" 	g2="T" 	k="102" />
<hkern g1="q" 	g2="V,W,Y" 	k="45" />
<hkern g1="i" 	g2="V,W,Y" 	k="16" />
<hkern g1="f" 	g2="f,germandbls" 	k="-16" />
<hkern g1="f" 	g2="T" 	k="-199" />
<hkern g1="f" 	g2="v,w,y" 	k="-61" />
<hkern g1="f" 	g2="J" 	k="66" />
<hkern g1="f" 	g2="A,Adieresis" 	k="12" />
<hkern g1="f" 	g2="V,W,Y" 	k="-47" />
<hkern g1="f" 	g2="C,G,O,Q,Odieresis" 	k="-47" />
<hkern g1="f" 	g2="c,d,e,g,o,q,odieresis" 	k="20" />
<hkern g1="f" 	g2="a,adieresis" 	k="72" />
<hkern g1="f" 	g2="period" 	k="-29" />
<hkern g1="f" 	g2="t,u,udieresis" 	k="-12" />
<hkern g1="f" 	g2="U,Udieresis" 	k="-29" />
<hkern g1="f" 	g2="b,h,k,l" 	k="-18" />
<hkern g1="f" 	g2="B,D,E,F,H,I,K,L,M,N,P,R" 	k="-51" />
<hkern g1="L" 	g2="backslash" 	k="115" />
<hkern g1="L" 	g2="A,Adieresis" 	k="-16" />
<hkern g1="j" 	g2="T" 	k="88" />
<hkern g1="j" 	g2="V,W,Y" 	k="6" />
<hkern g1="P" 	g2="J" 	k="61" />
<hkern g1="P" 	g2="A,Adieresis" 	k="80" />
<hkern g1="P" 	g2="period" 	k="39" />
<hkern g1="A,Adieresis" 	g2="backslash" 	k="84" />
<hkern g1="A,Adieresis" 	g2="T" 	k="133" />
<hkern g1="A,Adieresis" 	g2="v,w,y" 	k="39" />
<hkern g1="A,Adieresis" 	g2="V,W,Y" 	k="94" />
<hkern g1="A,Adieresis" 	g2="C,G,O,Q,Odieresis" 	k="35" />
<hkern g1="A,Adieresis" 	g2="c,d,e,g,o,q,odieresis" 	k="57" />
<hkern g1="A,Adieresis" 	g2="t,u,udieresis" 	k="57" />
<hkern g1="A,Adieresis" 	g2="U,Udieresis" 	k="41" />
<hkern g1="A,Adieresis" 	g2="S" 	k="16" />
<hkern g1="T" 	g2="v,w,y" 	k="102" />
<hkern g1="T" 	g2="z" 	k="88" />
<hkern g1="T" 	g2="J" 	k="29" />
<hkern g1="T" 	g2="A,Adieresis" 	k="133" />
<hkern g1="T" 	g2="C,G,O,Q,Odieresis" 	k="92" />
<hkern g1="T" 	g2="c,d,e,g,o,q,odieresis" 	k="152" />
<hkern g1="T" 	g2="s" 	k="45" />
<hkern g1="T" 	g2="period" 	k="115" />
<hkern g1="T" 	g2="m,n,r" 	k="102" />
<hkern g1="T" 	g2="t,u,udieresis" 	k="102" />
<hkern g1="T" 	g2="ampersand" 	k="59" />
<hkern g1="T" 	g2="b,h,k,l" 	k="119" />
<hkern g1="c" 	g2="V,W,Y" 	k="23" />
<hkern g1="c" 	g2="C,G,O,Q,Odieresis" 	k="41" />
<hkern g1="c" 	g2="c,d,e,g,o,q,odieresis" 	k="51" />
<hkern g1="c" 	g2="a,adieresis" 	k="59" />
<hkern g1="a,h,m,n,adieresis" 	g2="backslash" 	k="92" />
<hkern g1="a,h,m,n,adieresis" 	g2="T" 	k="102" />
<hkern g1="a,h,m,n,adieresis" 	g2="v,w,y" 	k="45" />
<hkern g1="a,h,m,n,adieresis" 	g2="z" 	k="29" />
<hkern g1="a,h,m,n,adieresis" 	g2="J" 	k="80" />
<hkern g1="a,h,m,n,adieresis" 	g2="braceright" 	k="16" />
<hkern g1="a,h,m,n,adieresis" 	g2="V,W,Y" 	k="74" />
<hkern g1="a,h,m,n,adieresis" 	g2="C,G,O,Q,Odieresis" 	k="12" />
<hkern g1="K,X" 	g2="C,G,O,Q,Odieresis" 	k="47" />
<hkern g1="r" 	g2="v,w,y" 	k="-57" />
<hkern g1="r" 	g2="A,Adieresis" 	k="29" />
<hkern g1="r" 	g2="V,W,Y" 	k="18" />
<hkern g1="r" 	g2="a,adieresis" 	k="51" />
<hkern g1="v,w,y" 	g2="T" 	k="102" />
<hkern g1="v,w,y" 	g2="J" 	k="57" />
<hkern g1="v,w,y" 	g2="A,Adieresis" 	k="39" />
<hkern g1="v,w,y" 	g2="V,W,Y" 	k="6" />
<hkern g1="v,w,y" 	g2="x" 	k="16" />
<hkern g1="v,w,y" 	g2="C,G,O,Q,Odieresis" 	k="16" />
<hkern g1="v,w,y" 	g2="c,d,e,g,o,q,odieresis" 	k="35" />
<hkern g1="v,w,y" 	g2="a,adieresis" 	k="27" />
<hkern g1="v,w,y" 	g2="s" 	k="6" />
<hkern g1="v,w,y" 	g2="period" 	k="31" />
<hkern g1="v,w,y" 	g2="m,n,r" 	k="-16" />
<hkern g1="B,germandbls" 	g2="backslash" 	k="20" />
<hkern g1="B,germandbls" 	g2="J" 	k="6" />
<hkern g1="z" 	g2="V,W,Y" 	k="33" />
<hkern g1="z" 	g2="c,d,e,g,o,q,odieresis" 	k="16" />
<hkern g1="z" 	g2="a,adieresis" 	k="29" />
<hkern g1="z" 	g2="m,n,r" 	k="29" />
<hkern g1="F" 	g2="J" 	k="33" />
<hkern g1="F" 	g2="A,Adieresis" 	k="51" />
<hkern g1="F" 	g2="period" 	k="43" />
<hkern g1="J,U,Udieresis" 	g2="J" 	k="39" />
<hkern g1="J,U,Udieresis" 	g2="A,Adieresis" 	k="41" />
<hkern g1="J,U,Udieresis" 	g2="x" 	k="41" />
<hkern g1="J,U,Udieresis" 	g2="period" 	k="25" />
<hkern g1="asterisk" 	g2="J" 	k="-10" />
<hkern g1="quotesingle" 	g2="J" 	k="35" />
<hkern g1="quoteright" 	g2="J" 	k="8" />
<hkern g1="trademark" 	g2="J" 	k="27" />
<hkern g1="slash" 	g2="J" 	k="66" />
<hkern g1="slash" 	g2="C,G,O,Q,Odieresis" 	k="41" />
<hkern g1="slash" 	g2="a,adieresis" 	k="25" />
<hkern g1="bracketleft" 	g2="C,G,O,Q,Odieresis" 	k="39" />
<hkern g1="quoteleft" 	g2="J" 	k="35" />
<hkern g1="parenleft" 	g2="C,G,O,Q,Odieresis" 	k="-123" />
<hkern g1="parenleft" 	g2="a,adieresis" 	k="20" />
<hkern g1="guilsinglright" 	g2="J" 	k="29" />
</font>
</defs></svg> 